(kicad_symbol_lib (version 20220914) (generator kicad_symbol_editor)
  (symbol "OLED_I2C" (in_bom yes) (on_board yes)
    (property "Reference" "U" (at -1.27 6.35 0)
      (effects (font (size 1.27 1.27)))
    )
    (property "Value" "OLED" (at 1.27 -6.35 0)
      (effects (font (size 1.27 1.27)))
    )
    (property "Footprint" "" (at -1.27 3.81 0)
      (effects (font (size 1.27 1.27)) hide)
    )
    (property "Datasheet" "" (at -1.27 3.81 0)
      (effects (font (size 1.27 1.27)) hide)
    )
    (symbol "OLED_I2C_1_1"
      (rectangle (start -1.27 5.08) (end 3.81 -5.08)
        (stroke (width 0) (type default))
        (fill (type background))
      )
      (pin power_in line (at -3.81 3.81 0) (length 2.54)
        (name "GND" (effects (font (size 1.27 1.27))))
        (number "1" (effects (font (size 1.27 1.27))))
      )
      (pin power_in line (at -3.81 1.27 0) (length 2.54)
        (name "VCC" (effects (font (size 1.27 1.27))))
        (number "2" (effects (font (size 1.27 1.27))))
      )
      (pin input line (at -3.81 -1.27 0) (length 2.54)
        (name "SCL" (effects (font (size 1.27 1.27))))
        (number "3" (effects (font (size 1.27 1.27))))
      )
      (pin bidirectional line (at -3.81 -3.81 0) (length 2.54)
        (name "SDA" (effects (font (size 1.27 1.27))))
        (number "4" (effects (font (size 1.27 1.27))))
      )
    )
  )
  (symbol "USB-Serial_adapter" (in_bom yes) (on_board yes)
    (property "Reference" "J" (at 0 8.89 0)
      (effects (font (size 1.27 1.27)))
    )
    (property "Value" "USB-Serial_adapter" (at 3.81 2.54 90)
      (effects (font (size 1.27 1.27)))
    )
    (property "Footprint" "" (at -3.81 2.54 0)
      (effects (font (size 1.27 1.27)) hide)
    )
    (property "Datasheet" "" (at -3.81 2.54 0)
      (effects (font (size 1.27 1.27)) hide)
    )
    (symbol "USB-Serial_adapter_0_1"
      (rectangle (start -2.54 7.62) (end 2.54 -7.62)
        (stroke (width 0) (type default))
        (fill (type background))
      )
    )
    (symbol "USB-Serial_adapter_1_1"
      (pin power_out line (at -5.08 -6.35 0) (length 2.54)
        (name "GND" (effects (font (size 1.27 1.27))))
        (number "1" (effects (font (size 1.27 1.27))))
      )
      (pin bidirectional line (at -5.08 -3.81 0) (length 2.54)
        (name "CTS" (effects (font (size 1.27 1.27))))
        (number "2" (effects (font (size 1.27 1.27))))
      )
      (pin power_out line (at -5.08 -1.27 0) (length 2.54)
        (name "VCC" (effects (font (size 1.27 1.27))))
        (number "3" (effects (font (size 1.27 1.27))))
      )
      (pin output line (at -5.08 1.27 0) (length 2.54)
        (name "TXD" (effects (font (size 1.27 1.27))))
        (number "4" (effects (font (size 1.27 1.27))))
      )
      (pin input line (at -5.08 3.81 0) (length 2.54)
        (name "RXD" (effects (font (size 1.27 1.27))))
        (number "5" (effects (font (size 1.27 1.27))))
      )
      (pin input line (at -5.08 6.35 0) (length 2.54)
        (name "DTR" (effects (font (size 1.27 1.27))))
        (number "6" (effects (font (size 1.27 1.27))))
      )
    )
  )
  (symbol "W5500_HW-243_module" (in_bom yes) (on_board yes)
    (property "Reference" "U" (at 0 10.16 0)
      (effects (font (size 1.27 1.27)))
    )
    (property "Value" "W5500_HW-243" (at 0 7.62 0)
      (effects (font (size 1.27 1.27)))
    )
    (property "Footprint" "nnvtn_kicad_library:W5500_HW-243_module" (at 0 -8.89 0)
      (effects (font (size 1.27 1.27)) hide)
    )
    (property "Datasheet" "" (at 0 0 0)
      (effects (font (size 1.27 1.27)) hide)
    )
    (symbol "W5500_HW-243_module_1_1"
      (rectangle (start -6.35 6.35) (end 6.35 -6.35)
        (stroke (width 0) (type default))
        (fill (type background))
      )
      (pin no_connect line (at -8.89 5.08 0) (length 2.54)
        (name "NC" (effects (font (size 1.27 1.27))))
        (number "1" (effects (font (size 1.27 1.27))))
      )
      (pin power_in line (at 8.89 -5.08 180) (length 2.54)
        (name "3v3in" (effects (font (size 1.27 1.27))))
        (number "10" (effects (font (size 1.27 1.27))))
      )
      (pin input line (at 8.89 5.08 180) (length 2.54)
        (name "SCLK" (effects (font (size 1.27 1.27))))
        (number "2" (effects (font (size 1.27 1.27))))
      )
      (pin output line (at -8.89 2.54 0) (length 2.54)
        (name "INT" (effects (font (size 1.27 1.27))))
        (number "3" (effects (font (size 1.27 1.27))))
      )
      (pin input line (at 8.89 2.54 180) (length 2.54)
        (name "SCS" (effects (font (size 1.27 1.27))))
        (number "4" (effects (font (size 1.27 1.27))))
      )
      (pin input line (at -8.89 0 0) (length 2.54)
        (name "RST" (effects (font (size 1.27 1.27))))
        (number "5" (effects (font (size 1.27 1.27))))
      )
      (pin input line (at 8.89 0 180) (length 2.54)
        (name "MOSI" (effects (font (size 1.27 1.27))))
        (number "6" (effects (font (size 1.27 1.27))))
      )
      (pin power_in line (at -8.89 -2.54 0) (length 2.54)
        (name "GND" (effects (font (size 1.27 1.27))))
        (number "7" (effects (font (size 1.27 1.27))))
      )
      (pin output line (at 8.89 -2.54 180) (length 2.54)
        (name "MISO" (effects (font (size 1.27 1.27))))
        (number "8" (effects (font (size 1.27 1.27))))
      )
      (pin power_in line (at -8.89 -5.08 0) (length 2.54)
        (name "5Vin" (effects (font (size 1.27 1.27))))
        (number "9" (effects (font (size 1.27 1.27))))
      )
    )
  )
  (symbol "WIZ820IO" (pin_names (offset 1.016)) (in_bom yes) (on_board yes)
    (property "Reference" "U" (at 0 -11.43 0)
      (effects (font (size 1.524 1.524)))
    )
    (property "Value" "WIZ820IO" (at 0 7.62 0)
      (effects (font (size 1.524 1.524)))
    )
    (property "Footprint" "" (at 0 0 0)
      (effects (font (size 1.524 1.524)) hide)
    )
    (property "Datasheet" "" (at 0 0 0)
      (effects (font (size 1.524 1.524)) hide)
    )
    (symbol "WIZ820IO_0_1"
      (rectangle (start -7.62 5.08) (end 7.62 -10.16)
        (stroke (width 0) (type default))
        (fill (type background))
      )
    )
    (symbol "WIZ820IO_1_1"
      (pin input line (at -12.7 3.81 0) (length 5.08)
        (name "GND" (effects (font (size 1.27 1.27))))
        (number "1" (effects (font (size 1.27 1.27))))
      )
      (pin input line (at 12.7 -1.27 180) (length 5.08)
        (name "VIN3.3" (effects (font (size 1.27 1.27))))
        (number "10" (effects (font (size 1.27 1.27))))
      )
      (pin input line (at 12.7 1.27 180) (length 5.08)
        (name "VIN3.3" (effects (font (size 1.27 1.27))))
        (number "11" (effects (font (size 1.27 1.27))))
      )
      (pin input line (at 12.7 3.81 180) (length 5.08)
        (name "GND" (effects (font (size 1.27 1.27))))
        (number "12" (effects (font (size 1.27 1.27))))
      )
      (pin input line (at -12.7 1.27 0) (length 5.08)
        (name "GND" (effects (font (size 1.27 1.27))))
        (number "2" (effects (font (size 1.27 1.27))))
      )
      (pin bidirectional line (at -12.7 -1.27 0) (length 5.08)
        (name "MOSI" (effects (font (size 1.27 1.27))))
        (number "3" (effects (font (size 1.27 1.27))))
      )
      (pin input line (at -12.7 -3.81 0) (length 5.08)
        (name "SCLK" (effects (font (size 1.27 1.27))))
        (number "4" (effects (font (size 1.27 1.27))))
      )
      (pin input line (at -12.7 -6.35 0) (length 5.08)
        (name "nSS" (effects (font (size 1.27 1.27))))
        (number "5" (effects (font (size 1.27 1.27))))
      )
      (pin output line (at -12.7 -8.89 0) (length 5.08)
        (name "nINT" (effects (font (size 1.27 1.27))))
        (number "6" (effects (font (size 1.27 1.27))))
      )
      (pin bidirectional line (at 12.7 -8.89 180) (length 5.08)
        (name "MISO" (effects (font (size 1.27 1.27))))
        (number "7" (effects (font (size 1.27 1.27))))
      )
      (pin input line (at 12.7 -6.35 180) (length 5.08)
        (name "nRESET" (effects (font (size 1.27 1.27))))
        (number "8" (effects (font (size 1.27 1.27))))
      )
      (pin input line (at 12.7 -3.81 180) (length 5.08)
        (name "PWDN" (effects (font (size 1.27 1.27))))
        (number "9" (effects (font (size 1.27 1.27))))
      )
    )
  )
  (symbol "WS2813" (pin_names (offset 0.254)) (in_bom yes) (on_board yes)
    (property "Reference" "D" (at 5.08 5.715 0)
      (effects (font (size 1.27 1.27)) (justify right bottom))
    )
    (property "Value" "WS2813" (at 1.27 -5.715 0)
      (effects (font (size 1.27 1.27)) (justify left top))
    )
    (property "Footprint" "LED_SMD:LED_WS2812_PLCC6_5.0x5.0mm_P1.6mm" (at 1.27 -7.62 0)
      (effects (font (size 1.27 1.27)) (justify left top) hide)
    )
    (property "Datasheet" "http://www.normandled.com/upload/201605/WS2813%20LED%20Datasheet.pdf" (at 2.54 -9.525 0)
      (effects (font (size 1.27 1.27)) (justify left top) hide)
    )
    (property "ki_keywords" "RGB LED addressable" (at 0 0 0)
      (effects (font (size 1.27 1.27)) hide)
    )
    (property "ki_description" "RGB LED with integrated controller" (at 0 0 0)
      (effects (font (size 1.27 1.27)) hide)
    )
    (property "ki_fp_filters" "LED*WS2812*PLCC*5.0x5.0mm*P1.6mm*" (at 0 0 0)
      (effects (font (size 1.27 1.27)) hide)
    )
    (symbol "WS2813_0_0"
      (text "RGB" (at 2.286 -4.191 0)
        (effects (font (size 0.762 0.762)))
      )
    )
    (symbol "WS2813_0_1"
      (polyline
        (pts
          (xy 1.27 -3.556)
          (xy 1.778 -3.556)
        )
        (stroke (width 0) (type default))
        (fill (type none))
      )
      (polyline
        (pts
          (xy 1.27 -2.54)
          (xy 1.778 -2.54)
        )
        (stroke (width 0) (type default))
        (fill (type none))
      )
      (polyline
        (pts
          (xy 4.699 -3.556)
          (xy 2.667 -3.556)
        )
        (stroke (width 0) (type default))
        (fill (type none))
      )
      (polyline
        (pts
          (xy 2.286 -2.54)
          (xy 1.27 -3.556)
          (xy 1.27 -3.048)
        )
        (stroke (width 0) (type default))
        (fill (type none))
      )
      (polyline
        (pts
          (xy 2.286 -1.524)
          (xy 1.27 -2.54)
          (xy 1.27 -2.032)
        )
        (stroke (width 0) (type default))
        (fill (type none))
      )
      (polyline
        (pts
          (xy 3.683 -1.016)
          (xy 3.683 -3.556)
          (xy 3.683 -4.064)
        )
        (stroke (width 0) (type default))
        (fill (type none))
      )
      (polyline
        (pts
          (xy 4.699 -1.524)
          (xy 2.667 -1.524)
          (xy 3.683 -3.556)
          (xy 4.699 -1.524)
        )
        (stroke (width 0) (type default))
        (fill (type none))
      )
      (rectangle (start 5.08 5.08) (end -5.08 -5.08)
        (stroke (width 0.254) (type default))
        (fill (type background))
      )
    )
    (symbol "WS2813_1_1"
      (pin power_in line (at 0 7.62 270) (length 2.54)
        (name "VCC" (effects (font (size 1.27 1.27))))
        (number "1" (effects (font (size 1.27 1.27))))
      )
      (pin power_in line (at -2.54 7.62 270) (length 2.54)
        (name "VDD" (effects (font (size 1.27 1.27))))
        (number "2" (effects (font (size 1.27 1.27))))
      )
      (pin output line (at 7.62 0 180) (length 2.54)
        (name "DOUT" (effects (font (size 1.27 1.27))))
        (number "3" (effects (font (size 1.27 1.27))))
      )
      (pin input line (at -7.62 0 0) (length 2.54)
        (name "DIN" (effects (font (size 1.27 1.27))))
        (number "4" (effects (font (size 1.27 1.27))))
      )
      (pin power_in line (at 0 -7.62 90) (length 2.54)
        (name "GND" (effects (font (size 1.27 1.27))))
        (number "5" (effects (font (size 1.27 1.27))))
      )
      (pin input line (at -7.62 -2.54 0) (length 2.54)
        (name "BIN" (effects (font (size 1.27 1.27))))
        (number "6" (effects (font (size 1.27 1.27))))
      )
    )
  )
  (symbol "WS2818B" (pin_names (offset 0.254)) (in_bom yes) (on_board yes)
    (property "Reference" "U" (at 0 5.08 0)
      (effects (font (size 1.27 1.27)) (justify bottom))
    )
    (property "Value" "WS2818B" (at 0 -5.08 0)
      (effects (font (size 1.27 1.27)) (justify top))
    )
    (property "Footprint" "Package_SO:SOIC-8_3.9x4.9mm_P1.27mm" (at -3.81 -7.62 0)
      (effects (font (size 1.27 1.27)) (justify left top) hide)
    )
    (property "Datasheet" "https://octopart.com/datasheet/ws2818b-worldsemi-118049423" (at -3.81 -10.16 0)
      (effects (font (size 1.27 1.27)) (justify left top) hide)
    )
    (property "ki_keywords" "RGB LED addressable" (at 0 0 0)
      (effects (font (size 1.27 1.27)) hide)
    )
    (property "ki_description" "RGB LED with integrated controller" (at 0 0 0)
      (effects (font (size 1.27 1.27)) hide)
    )
    (property "ki_fp_filters" "LED*WS2812*PLCC*5.0x5.0mm*P1.6mm*" (at 0 0 0)
      (effects (font (size 1.27 1.27)) hide)
    )
    (symbol "WS2818B_0_1"
      (rectangle (start -3.81 5.08) (end 3.81 -5.08)
        (stroke (width 0) (type default))
        (fill (type background))
      )
    )
    (symbol "WS2818B_1_1"
      (pin power_out line (at -6.35 3.81 0) (length 2.54)
        (name "R" (effects (font (size 1.27 1.27))))
        (number "1" (effects (font (size 1.27 1.27))))
      )
      (pin power_out line (at -6.35 1.27 0) (length 2.54)
        (name "G" (effects (font (size 1.27 1.27))))
        (number "2" (effects (font (size 1.27 1.27))))
      )
      (pin power_out line (at -6.35 -1.27 0) (length 2.54)
        (name "B" (effects (font (size 1.27 1.27))))
        (number "3" (effects (font (size 1.27 1.27))))
      )
      (pin output line (at -6.35 -3.81 0) (length 2.54)
        (name "DO" (effects (font (size 1.27 1.27))))
        (number "4" (effects (font (size 1.27 1.27))))
      )
      (pin input line (at 6.35 -3.81 180) (length 2.54)
        (name "DI" (effects (font (size 1.27 1.27))))
        (number "5" (effects (font (size 1.27 1.27))))
      )
      (pin power_in line (at 6.35 -1.27 180) (length 2.54)
        (name "GND" (effects (font (size 1.27 1.27))))
        (number "6" (effects (font (size 1.27 1.27))))
      )
      (pin input line (at 6.35 1.27 180) (length 2.54)
        (name "BI" (effects (font (size 1.27 1.27))))
        (number "7" (effects (font (size 1.27 1.27))))
      )
      (pin power_in line (at 6.35 3.81 180) (length 2.54)
        (name "VDD" (effects (font (size 1.27 1.27))))
        (number "8" (effects (font (size 1.27 1.27))))
      )
    )
  )
  (symbol "WT32-ETH01" (in_bom yes) (on_board yes)
    (property "Reference" "U" (at 0 22.86 0)
      (effects (font (size 1.27 1.27)))
    )
    (property "Value" "WT32-ETH01" (at 0 19.05 0)
      (effects (font (size 1.27 1.27)))
    )
    (property "Footprint" "" (at 0 16.51 0)
      (effects (font (size 1.27 1.27)) hide)
    )
    (property "Datasheet" "" (at 0 16.51 0)
      (effects (font (size 1.27 1.27)) hide)
    )
    (symbol "WT32-ETH01_0_1"
      (rectangle (start -11.43 17.78) (end 11.43 -20.32)
        (stroke (width 0) (type default))
        (fill (type background))
      )
      (rectangle (start -6.35 -16.51) (end 6.35 -25.4)
        (stroke (width 0) (type default))
        (fill (type background))
      )
    )
    (symbol "WT32-ETH01_1_1"
      (pin bidirectional line (at -16.51 15.24 0) (length 5.08)
        (name "IO1_TX0" (effects (font (size 1.27 1.27))))
        (number "1" (effects (font (size 1.27 1.27))))
      )
      (pin input line (at -16.51 -7.62 0) (length 5.08)
        (name "IO35_IN" (effects (font (size 1.27 1.27))))
        (number "10" (effects (font (size 1.27 1.27))))
      )
      (pin bidirectional line (at -16.51 -10.16 0) (length 5.08)
        (name "IO4" (effects (font (size 1.27 1.27))))
        (number "11" (effects (font (size 1.27 1.27))))
      )
      (pin bidirectional line (at -16.51 -12.7 0) (length 5.08)
        (name "IO2" (effects (font (size 1.27 1.27))))
        (number "12" (effects (font (size 1.27 1.27))))
      )
      (pin power_in line (at -16.51 -15.24 0) (length 5.08)
        (name "GND" (effects (font (size 1.27 1.27))))
        (number "13" (effects (font (size 1.27 1.27))))
      )
      (pin output line (at 16.51 -15.24 180) (length 5.08)
        (name "LINK" (effects (font (size 1.27 1.27))))
        (number "14" (effects (font (size 1.27 1.27))))
      )
      (pin power_in line (at 16.51 -12.7 180) (length 5.08)
        (name "5V" (effects (font (size 1.27 1.27))))
        (number "15" (effects (font (size 1.27 1.27))))
      )
      (pin power_in line (at 16.51 -10.16 180) (length 5.08)
        (name "GND" (effects (font (size 1.27 1.27))))
        (number "16" (effects (font (size 1.27 1.27))))
      )
      (pin power_in line (at 16.51 -7.62 180) (length 5.08)
        (name "3V3" (effects (font (size 1.27 1.27))))
        (number "17" (effects (font (size 1.27 1.27))))
      )
      (pin power_in line (at 16.51 -5.08 180) (length 5.08)
        (name "GND" (effects (font (size 1.27 1.27))))
        (number "18" (effects (font (size 1.27 1.27))))
      )
      (pin bidirectional line (at 16.51 -2.54 180) (length 5.08)
        (name "IO17_TX2" (effects (font (size 1.27 1.27))))
        (number "19" (effects (font (size 1.27 1.27))))
      )
      (pin bidirectional line (at -16.51 12.7 0) (length 5.08)
        (name "IO3_RX0" (effects (font (size 1.27 1.27))))
        (number "2" (effects (font (size 1.27 1.27))))
      )
      (pin bidirectional line (at 16.51 0 180) (length 5.08)
        (name "IO5_RX2" (effects (font (size 1.27 1.27))))
        (number "20" (effects (font (size 1.27 1.27))))
      )
      (pin bidirectional line (at 16.51 2.54 180) (length 5.08)
        (name "IO33" (effects (font (size 1.27 1.27))))
        (number "21" (effects (font (size 1.27 1.27))))
      )
      (pin bidirectional line (at 16.51 5.08 180) (length 5.08)
        (name "IO32" (effects (font (size 1.27 1.27))))
        (number "22" (effects (font (size 1.27 1.27))))
      )
      (pin passive line (at 16.51 7.62 180) (length 5.08)
        (name "EN" (effects (font (size 1.27 1.27))))
        (number "23" (effects (font (size 1.27 1.27))))
      )
      (pin power_in line (at 16.51 10.16 180) (length 5.08)
        (name "3V3" (effects (font (size 1.27 1.27))))
        (number "24" (effects (font (size 1.27 1.27))))
      )
      (pin power_in line (at 16.51 12.7 180) (length 5.08)
        (name "GND" (effects (font (size 1.27 1.27))))
        (number "25" (effects (font (size 1.27 1.27))))
      )
      (pin passive line (at 16.51 15.24 180) (length 5.08)
        (name "EN" (effects (font (size 1.27 1.27))))
        (number "26" (effects (font (size 1.27 1.27))))
      )
      (pin bidirectional line (at -16.51 10.16 0) (length 5.08)
        (name "IO0" (effects (font (size 1.27 1.27))))
        (number "3" (effects (font (size 1.27 1.27))))
      )
      (pin power_in line (at -16.51 7.62 0) (length 5.08)
        (name "GND" (effects (font (size 1.27 1.27))))
        (number "4" (effects (font (size 1.27 1.27))))
      )
      (pin input line (at -16.51 5.08 0) (length 5.08)
        (name "IO39_IN" (effects (font (size 1.27 1.27))))
        (number "5" (effects (font (size 1.27 1.27))))
      )
      (pin input line (at -16.51 2.54 0) (length 5.08)
        (name "IO36_IN" (effects (font (size 1.27 1.27))))
        (number "6" (effects (font (size 1.27 1.27))))
      )
      (pin bidirectional line (at -16.51 0 0) (length 5.08)
        (name "IO15" (effects (font (size 1.27 1.27))))
        (number "7" (effects (font (size 1.27 1.27))))
      )
      (pin bidirectional line (at -16.51 -2.54 0) (length 5.08)
        (name "IO14" (effects (font (size 1.27 1.27))))
        (number "8" (effects (font (size 1.27 1.27))))
      )
      (pin bidirectional line (at -16.51 -5.08 0) (length 5.08)
        (name "IO12" (effects (font (size 1.27 1.27))))
        (number "9" (effects (font (size 1.27 1.27))))
      )
    )
  )
  (symbol "led_tactile_part" (in_bom yes) (on_board yes)
    (property "Reference" "M" (at 0 10.16 0)
      (effects (font (size 1.27 1.27)))
    )
    (property "Value" "" (at -2.54 2.54 0)
      (effects (font (size 1.27 1.27)))
    )
    (property "Footprint" "" (at -2.54 2.54 0)
      (effects (font (size 1.27 1.27)) hide)
    )
    (property "Datasheet" "" (at -2.54 2.54 0)
      (effects (font (size 1.27 1.27)) hide)
    )
    (symbol "led_tactile_part_1_1"
      (rectangle (start -8.89 8.89) (end 8.89 -8.89)
        (stroke (width 0) (type default))
        (fill (type background))
      )
      (pin power_in line (at -11.43 6.35 0) (length 2.54)
        (name "GND" (effects (font (size 1.27 1.27))))
        (number "1" (effects (font (size 1.27 1.27))))
      )
      (pin input line (at 11.43 -3.81 180) (length 2.54)
        (name "MUX_S2" (effects (font (size 1.27 1.27))))
        (number "10" (effects (font (size 1.27 1.27))))
      )
      (pin output line (at -11.43 -6.35 0) (length 2.54)
        (name "LED_OUT" (effects (font (size 1.27 1.27))))
        (number "11" (effects (font (size 1.27 1.27))))
      )
      (pin input line (at 11.43 -6.35 180) (length 2.54)
        (name "MUX_S3" (effects (font (size 1.27 1.27))))
        (number "12" (effects (font (size 1.27 1.27))))
      )
      (pin passive line (at 11.43 6.35 180) (length 2.54)
        (name "MUX_COM" (effects (font (size 1.27 1.27))))
        (number "2" (effects (font (size 1.27 1.27))))
      )
      (pin input line (at -11.43 3.81 0) (length 2.54)
        (name "LED_IN" (effects (font (size 1.27 1.27))))
        (number "3" (effects (font (size 1.27 1.27))))
      )
      (pin input line (at 11.43 3.81 180) (length 2.54)
        (name "MUX_S0" (effects (font (size 1.27 1.27))))
        (number "4" (effects (font (size 1.27 1.27))))
      )
      (pin no_connect line (at -11.43 1.27 0) (length 2.54)
        (name "NC" (effects (font (size 1.27 1.27))))
        (number "5" (effects (font (size 1.27 1.27))))
      )
      (pin input line (at 11.43 1.27 180) (length 2.54)
        (name "MUX_S1" (effects (font (size 1.27 1.27))))
        (number "6" (effects (font (size 1.27 1.27))))
      )
      (pin power_in line (at -11.43 -1.27 0) (length 2.54)
        (name "+5V" (effects (font (size 1.27 1.27))))
        (number "7" (effects (font (size 1.27 1.27))))
      )
      (pin input line (at 11.43 -1.27 180) (length 2.54)
        (name "MUX_EN" (effects (font (size 1.27 1.27))))
        (number "8" (effects (font (size 1.27 1.27))))
      )
      (pin power_in line (at -11.43 -3.81 0) (length 2.54)
        (name "+3.3V" (effects (font (size 1.27 1.27))))
        (number "9" (effects (font (size 1.27 1.27))))
      )
    )
  )
  (symbol "logo" (in_bom yes) (on_board yes)
    (property "Reference" "U" (at 0 5.08 0)
      (effects (font (size 1.27 1.27)) hide)
    )
    (property "Value" "logo" (at 0 0 0)
      (effects (font (size 1.27 1.27)))
    )
    (property "Footprint" "" (at 0 0 0)
      (effects (font (size 1.27 1.27)) hide)
    )
    (property "Datasheet" "" (at 0 0 0)
      (effects (font (size 1.27 1.27)) hide)
    )
    (symbol "logo_0_1"
      (rectangle (start -2.54 1.27) (end 2.54 -1.27)
        (stroke (width 0) (type default))
        (fill (type none))
      )
    )
  )
  (symbol "nodeMCU-32S" (pin_names (offset 1.016)) (in_bom yes) (on_board yes)
    (property "Reference" "U" (at 0 13.97 0)
      (effects (font (size 1.27 1.27)))
    )
    (property "Value" "nodeMCU-32S" (at -0.508 12.192 0)
      (effects (font (size 1.27 1.27)))
    )
    (property "Footprint" "" (at 0 0 0)
      (effects (font (size 1.27 1.27)) hide)
    )
    (property "Datasheet" "" (at 0 0 0)
      (effects (font (size 1.27 1.27)) hide)
    )
    (symbol "nodeMCU-32S_0_0"
      (polyline
        (pts
          (xy 0 -45.72)
          (xy 0 10.16)
        )
        (stroke (width 0.02) (type default))
        (fill (type none))
      )
      (text "ADC0" (at -7.62 2.54 0)
        (effects (font (size 0.75 0.75)) (justify left))
      )
      (text "ADC10" (at 11.43 -22.86 0)
        (effects (font (size 0.75 0.75)) (justify right))
      )
      (text "ADC11" (at 11.43 -25.4 0)
        (effects (font (size 0.75 0.75)) (justify right))
      )
      (text "ADC12" (at 11.43 -27.94 0)
        (effects (font (size 0.75 0.75)) (justify right))
      )
      (text "ADC14" (at -3.81 -27.94 0)
        (effects (font (size 0.75 0.75)) (justify left))
      )
      (text "ADC15" (at -3.81 -22.86 0)
        (effects (font (size 0.75 0.75)) (justify left))
      )
      (text "ADC16" (at -3.81 -20.32 0)
        (effects (font (size 0.75 0.75)) (justify left))
      )
      (text "ADC17" (at -3.81 -17.78 0)
        (effects (font (size 0.75 0.75)) (justify left))
      )
      (text "ADC18" (at -3.81 -12.7 0)
        (effects (font (size 0.75 0.75)) (justify left))
      )
      (text "ADC19" (at -3.81 -15.24 0)
        (effects (font (size 0.75 0.75)) (justify left))
      )
      (text "ADC3" (at -7.62 0 0)
        (effects (font (size 0.75 0.75)) (justify left))
      )
      (text "ADC4" (at -3.81 -7.62 0)
        (effects (font (size 0.75 0.75)) (justify left))
      )
      (text "ADC5" (at -3.81 -10.16 0)
        (effects (font (size 0.75 0.75)) (justify left))
      )
      (text "ADC6" (at -7.62 -2.54 0)
        (effects (font (size 0.75 0.75)) (justify left))
      )
      (text "ADC7" (at -7.62 -5.08 0)
        (effects (font (size 0.75 0.75)) (justify left))
      )
      (text "HSPI_CLK" (at -10.16 -20.32 0)
        (effects (font (size 0.75 0.75)) (justify left))
      )
      (text "HSPI_MISO" (at -10.16 -22.86 0)
        (effects (font (size 0.75 0.75)) (justify left))
      )
      (text "HSPI_MOSI" (at -10.16 -27.94 0)
        (effects (font (size 0.75 0.75)) (justify left))
      )
      (text "HSPI_SS  ADC13" (at 11.43 -30.48 0)
        (effects (font (size 0.75 0.75)) (justify right))
      )
      (text "I2C_SCL" (at 6.35 2.54 0)
        (effects (font (size 0.75 0.75)) (justify right))
      )
      (text "I2C_SDA" (at 6.35 -5.08 0)
        (effects (font (size 0.75 0.75)) (justify right))
      )
      (text "input" (at -1.27 0 0)
        (effects (font (size 1.27 1.27)))
      )
      (text "internal" (at 6.35 -35.56 0)
        (effects (font (size 1.27 1.27)))
      )
      (text "only" (at -1.27 -2.54 0)
        (effects (font (size 1.27 1.27)))
      )
      (text "RX0" (at 6.35 -2.54 0)
        (effects (font (size 0.75 0.75)) (justify right))
      )
      (text "RX1" (at -10.16 -30.48 0)
        (effects (font (size 0.75 0.75)) (justify left))
      )
      (text "RX2" (at 6.35 -20.32 0)
        (effects (font (size 0.75 0.75)) (justify right))
      )
      (text "TX0" (at 6.35 0 0)
        (effects (font (size 0.75 0.75)) (justify right))
      )
      (text "TX1" (at -10.16 -33.02 0)
        (effects (font (size 0.75 0.75)) (justify left))
      )
      (text "TX2" (at 6.35 -17.78 0)
        (effects (font (size 0.75 0.75)) (justify right))
      )
      (text "VSPI_MISO" (at 6.35 -10.16 0)
        (effects (font (size 0.75 0.75)) (justify right))
      )
      (text "VSPI_MOSI" (at 6.35 5.08 0)
        (effects (font (size 0.75 0.75)) (justify right))
      )
      (text "VSPI_SCK" (at 6.35 -12.7 0)
        (effects (font (size 0.75 0.75)) (justify right))
      )
      (text "VSPI_SS" (at 6.35 -15.24 0)
        (effects (font (size 0.75 0.75)) (justify right))
      )
    )
    (symbol "nodeMCU-32S_0_1"
      (rectangle (start -19.05 10.16) (end 19.05 -45.72)
        (stroke (width 0) (type default))
        (fill (type background))
      )
      (rectangle (start -5.08 -39.37) (end 5.08 -46.99)
        (stroke (width 0) (type default))
        (fill (type background))
      )
      (polyline
        (pts
          (xy -3.81 -6.35)
          (xy -3.81 3.81)
        )
        (stroke (width 0) (type default))
        (fill (type none))
      )
      (polyline
        (pts
          (xy 11.43 -31.75)
          (xy 11.43 -39.37)
        )
        (stroke (width 0) (type default))
        (fill (type none))
      )
    )
    (symbol "nodeMCU-32S_1_1"
      (pin power_out line (at -24.13 7.62 0) (length 5.08)
        (name "3.3V" (effects (font (size 1.27 1.27))))
        (number "1" (effects (font (size 1.27 1.27))))
      )
      (pin bidirectional line (at -24.13 -15.24 0) (length 5.08)
        (name "GIOP26" (effects (font (size 1.27 1.27))))
        (number "10" (effects (font (size 1.27 1.27))))
      )
      (pin bidirectional line (at -24.13 -17.78 0) (length 5.08)
        (name "GIOP27" (effects (font (size 1.27 1.27))))
        (number "11" (effects (font (size 1.27 1.27))))
      )
      (pin bidirectional line (at -24.13 -20.32 0) (length 5.08)
        (name "GIOP14" (effects (font (size 1.27 1.27))))
        (number "12" (effects (font (size 1.27 1.27))))
      )
      (pin bidirectional line (at -24.13 -22.86 0) (length 5.08)
        (name "GIOP12" (effects (font (size 1.27 1.27))))
        (number "13" (effects (font (size 1.27 1.27))))
      )
      (pin power_in line (at -24.13 -25.4 0) (length 5.08)
        (name "GND" (effects (font (size 1.27 1.27))))
        (number "14" (effects (font (size 1.27 1.27))))
      )
      (pin bidirectional line (at -24.13 -27.94 0) (length 5.08)
        (name "GIOP13" (effects (font (size 1.27 1.27))))
        (number "15" (effects (font (size 1.27 1.27))))
      )
      (pin bidirectional line (at -24.13 -30.48 0) (length 5.08)
        (name "GIOP9" (effects (font (size 1.27 1.27))))
        (number "16" (effects (font (size 1.27 1.27))))
      )
      (pin bidirectional line (at -24.13 -33.02 0) (length 5.08)
        (name "GIOP10" (effects (font (size 1.27 1.27))))
        (number "17" (effects (font (size 1.27 1.27))))
      )
      (pin bidirectional line (at -24.13 -35.56 0) (length 5.08)
        (name "GIOP11" (effects (font (size 1.27 1.27))))
        (number "18" (effects (font (size 1.27 1.27))))
      )
      (pin power_in line (at -24.13 -38.1 0) (length 5.08)
        (name "VIN_5V" (effects (font (size 1.27 1.27))))
        (number "19" (effects (font (size 1.27 1.27))))
      )
      (pin bidirectional line (at -24.13 5.08 0) (length 5.08)
        (name "RESET" (effects (font (size 1.27 1.27))))
        (number "2" (effects (font (size 1.27 1.27))))
      )
      (pin bidirectional line (at 24.13 -38.1 180) (length 5.08)
        (name "GIOP6" (effects (font (size 1.27 1.27))))
        (number "20" (effects (font (size 1.27 1.27))))
      )
      (pin bidirectional line (at 24.13 -35.56 180) (length 5.08)
        (name "GIOP7" (effects (font (size 1.27 1.27))))
        (number "21" (effects (font (size 1.27 1.27))))
      )
      (pin bidirectional line (at 24.13 -33.02 180) (length 5.08)
        (name "GIOP8" (effects (font (size 1.27 1.27))))
        (number "22" (effects (font (size 1.27 1.27))))
      )
      (pin bidirectional line (at 24.13 -30.48 180) (length 5.08)
        (name "GIOP15" (effects (font (size 1.27 1.27))))
        (number "23" (effects (font (size 1.27 1.27))))
      )
      (pin bidirectional line (at 24.13 -27.94 180) (length 5.08)
        (name "GIOP2" (effects (font (size 1.27 1.27))))
        (number "24" (effects (font (size 1.27 1.27))))
      )
      (pin bidirectional line (at 24.13 -25.4 180) (length 5.08)
        (name "GIOP0" (effects (font (size 1.27 1.27))))
        (number "25" (effects (font (size 1.27 1.27))))
      )
      (pin bidirectional line (at 24.13 -22.86 180) (length 5.08)
        (name "GIOP4" (effects (font (size 1.27 1.27))))
        (number "26" (effects (font (size 1.27 1.27))))
      )
      (pin bidirectional line (at 24.13 -20.32 180) (length 5.08)
        (name "GIOP16" (effects (font (size 1.27 1.27))))
        (number "27" (effects (font (size 1.27 1.27))))
      )
      (pin bidirectional line (at 24.13 -17.78 180) (length 5.08)
        (name "GIOP17" (effects (font (size 1.27 1.27))))
        (number "28" (effects (font (size 1.27 1.27))))
      )
      (pin bidirectional line (at 24.13 -15.24 180) (length 5.08)
        (name "GIOP5" (effects (font (size 1.27 1.27))))
        (number "29" (effects (font (size 1.27 1.27))))
      )
      (pin input line (at -24.13 2.54 0) (length 5.08)
        (name "GIOP36" (effects (font (size 1.27 1.27))))
        (number "3" (effects (font (size 1.27 1.27))))
      )
      (pin bidirectional line (at 24.13 -12.7 180) (length 5.08)
        (name "GIOP18" (effects (font (size 1.27 1.27))))
        (number "30" (effects (font (size 1.27 1.27))))
      )
      (pin bidirectional line (at 24.13 -10.16 180) (length 5.08)
        (name "GIOP19" (effects (font (size 1.27 1.27))))
        (number "31" (effects (font (size 1.27 1.27))))
      )
      (pin power_in line (at 24.13 -7.62 180) (length 5.08)
        (name "GND" (effects (font (size 1.27 1.27))))
        (number "32" (effects (font (size 1.27 1.27))))
      )
      (pin bidirectional line (at 24.13 -5.08 180) (length 5.08)
        (name "GIOP21" (effects (font (size 1.27 1.27))))
        (number "33" (effects (font (size 1.27 1.27))))
      )
      (pin bidirectional line (at 24.13 -2.54 180) (length 5.08)
        (name "GIOP3" (effects (font (size 1.27 1.27))))
        (number "34" (effects (font (size 1.27 1.27))))
      )
      (pin bidirectional line (at 24.13 0 180) (length 5.08)
        (name "GIOP1" (effects (font (size 1.27 1.27))))
        (number "35" (effects (font (size 1.27 1.27))))
      )
      (pin bidirectional line (at 24.13 2.54 180) (length 5.08)
        (name "GIOP22" (effects (font (size 1.27 1.27))))
        (number "36" (effects (font (size 1.27 1.27))))
      )
      (pin bidirectional line (at 24.13 5.08 180) (length 5.08)
        (name "GIOP23" (effects (font (size 1.27 1.27))))
        (number "37" (effects (font (size 1.27 1.27))))
      )
      (pin power_in line (at 24.13 7.62 180) (length 5.08)
        (name "GND" (effects (font (size 1.27 1.27))))
        (number "38" (effects (font (size 1.27 1.27))))
      )
      (pin input line (at -24.13 0 0) (length 5.08)
        (name "GIOP39" (effects (font (size 1.27 1.27))))
        (number "4" (effects (font (size 1.27 1.27))))
      )
      (pin input line (at -24.13 -2.54 0) (length 5.08)
        (name "GIOP34" (effects (font (size 1.27 1.27))))
        (number "5" (effects (font (size 1.27 1.27))))
      )
      (pin input line (at -24.13 -5.08 0) (length 5.08)
        (name "GIOP35" (effects (font (size 1.27 1.27))))
        (number "6" (effects (font (size 1.27 1.27))))
      )
      (pin bidirectional line (at -24.13 -7.62 0) (length 5.08)
        (name "GIOP32" (effects (font (size 1.27 1.27))))
        (number "7" (effects (font (size 1.27 1.27))))
      )
      (pin bidirectional line (at -24.13 -10.16 0) (length 5.08)
        (name "GIOP33" (effects (font (size 1.27 1.27))))
        (number "8" (effects (font (size 1.27 1.27))))
      )
      (pin bidirectional line (at -24.13 -12.7 0) (length 5.08)
        (name "GIOP25" (effects (font (size 1.27 1.27))))
        (number "9" (effects (font (size 1.27 1.27))))
      )
    )
  )
)
