(footprint "1X12_NO_SILK"
	(version 20240108)
	(generator "pcbnew")
	(generator_version "8.0")
	(layer "F.Cu")
	(descr "Plated Through Hole -12 Pin No Silk\n\nSpecifications:\n\n• Pin count:12\n• Pin pitch:0.1\"\n\nExample device(s):\n\n• CONN_12")
	(property "Reference" "REF**"
		(at -1.27 -1.397 0)
		(unlocked yes)
		(layer "F.SilkS")
		(uuid "0abe3321-4cff-42ef-9247-fe5c644fc550")
		(effects
			(font
				(size 0.48768 0.48768)
				(thickness 0.12192)
			)
			(justify left bottom)
		)
	)
	(property "Value" "1X12_NO_SILK"
		(at -1.27 2.032 0)
		(unlocked yes)
		(layer "F.Fab")
		(uuid "33446355-fdb1-4961-ad0c-fc99462595cf")
		(effects
			(font
				(size 0.48768 0.48768)
				(thickness 0.12192)
			)
			(justify left bottom)
		)
	)
	(property "Footprint" ""
		(at 0 0 0)
		(unlocked yes)
		(layer "F.Fab")
		(hide yes)
		(uuid "fa341416-deae-40c5-a772-f7a863a3377c")
		(effects
			(font
				(size 1.27 1.27)
			)
		)
	)
	(property "Datasheet" ""
		(at 0 0 0)
		(unlocked yes)
		(layer "F.Fab")
		(hide yes)
		(uuid "bdb5a7b7-a0d9-4690-9d87-977e372caa9b")
		(effects
			(font
				(size 1.27 1.27)
			)
		)
	)
	(property "Description" ""
		(at 0 0 0)
		(unlocked yes)
		(layer "F.Fab")
		(hide yes)
		(uuid "1ce7a44a-fbeb-42a9-b88b-cfb44f6f671f")
		(effects
			(font
				(size 1.27 1.27)
			)
		)
	)
	(pad "1" thru_hole circle
		(at 0 0 90)
		(size 1.8796 1.8796)
		(drill 1.016)
		(layers "*.Cu" "*.Mask")
		(remove_unused_layers no)
		(solder_mask_margin 0.0508)
		(thermal_bridge_angle 0)
		(uuid "1b1129f1-73ad-4804-9f86-44828644e4bd")
	)
	(pad "2" thru_hole circle
		(at 2.54 0 90)
		(size 1.8796 1.8796)
		(drill 1.016)
		(layers "*.Cu" "*.Mask")
		(remove_unused_layers no)
		(solder_mask_margin 0.0508)
		(thermal_bridge_angle 0)
		(uuid "956145df-012c-4b34-91e2-d76606868673")
	)
	(pad "3" thru_hole circle
		(at 5.08 0 90)
		(size 1.8796 1.8796)
		(drill 1.016)
		(layers "*.Cu" "*.Mask")
		(remove_unused_layers no)
		(solder_mask_margin 0.0508)
		(thermal_bridge_angle 0)
		(uuid "99d236ca-5764-4b48-bbfd-19766e5b1e6f")
	)
	(pad "4" thru_hole circle
		(at 7.62 0 90)
		(size 1.8796 1.8796)
		(drill 1.016)
		(layers "*.Cu" "*.Mask")
		(remove_unused_layers no)
		(solder_mask_margin 0.0508)
		(thermal_bridge_angle 0)
		(uuid "20c4176e-040d-4c0c-9f0f-6aab4d989abb")
	)
	(pad "5" thru_hole circle
		(at 10.16 0 90)
		(size 1.8796 1.8796)
		(drill 1.016)
		(layers "*.Cu" "*.Mask")
		(remove_unused_layers no)
		(solder_mask_margin 0.0508)
		(thermal_bridge_angle 0)
		(uuid "e8482b18-3623-47de-b236-1ad8f24e176b")
	)
	(pad "6" thru_hole circle
		(at 12.7 0 90)
		(size 1.8796 1.8796)
		(drill 1.016)
		(layers "*.Cu" "*.Mask")
		(remove_unused_layers no)
		(solder_mask_margin 0.0508)
		(thermal_bridge_angle 0)
		(uuid "37766237-2f34-475b-94b3-25ba1b9dc785")
	)
	(pad "7" thru_hole circle
		(at 15.24 0 90)
		(size 1.8796 1.8796)
		(drill 1.016)
		(layers "*.Cu" "*.Mask")
		(remove_unused_layers no)
		(solder_mask_margin 0.0508)
		(thermal_bridge_angle 0)
		(uuid "ced15e85-aa6b-4a70-a12f-0147a5aabb22")
	)
	(pad "8" thru_hole circle
		(at 17.78 0 90)
		(size 1.8796 1.8796)
		(drill 1.016)
		(layers "*.Cu" "*.Mask")
		(remove_unused_layers no)
		(solder_mask_margin 0.0508)
		(thermal_bridge_angle 0)
		(uuid "78b78285-9104-4385-9d28-4426336a84a6")
	)
	(pad "9" thru_hole circle
		(at 20.32 0 90)
		(size 1.8796 1.8796)
		(drill 1.016)
		(layers "*.Cu" "*.Mask")
		(remove_unused_layers no)
		(solder_mask_margin 0.0508)
		(thermal_bridge_angle 0)
		(uuid "13cbcd31-6593-453a-953c-74127b6b6f09")
	)
	(pad "10" thru_hole circle
		(at 22.86 0 90)
		(size 1.8796 1.8796)
		(drill 1.016)
		(layers "*.Cu" "*.Mask")
		(remove_unused_layers no)
		(solder_mask_margin 0.0508)
		(thermal_bridge_angle 0)
		(uuid "98c23800-42ad-49ed-be13-feb1b159b12c")
	)
	(pad "11" thru_hole circle
		(at 25.4 0 90)
		(size 1.8796 1.8796)
		(drill 1.016)
		(layers "*.Cu" "*.Mask")
		(remove_unused_layers no)
		(solder_mask_margin 0.0508)
		(thermal_bridge_angle 0)
		(uuid "3bbb546e-714d-4877-8eb9-aa4963d4edce")
	)
	(pad "12" thru_hole circle
		(at 27.94 0 90)
		(size 1.8796 1.8796)
		(drill 1.016)
		(layers "*.Cu" "*.Mask")
		(remove_unused_layers no)
		(solder_mask_margin 0.0508)
		(thermal_bridge_angle 0)
		(uuid "f94269a6-169b-44f4-86ae-5d37cda9bb9d")
	)
)