(footprint "1X19"
	(version 20240108)
	(generator "pcbnew")
	(generator_version "8.0")
	(layer "F.Cu")
	(property "Reference" "REF**"
		(at -1.3462 5.08 0)
		(unlocked yes)
		(layer "F.SilkS")
		(hide yes)
		(uuid "4ca968fd-95e3-4df2-8f24-0bcef6bf2723")
		(effects
			(font
				(size 1.143 1.143)
				(thickness 0.127)
			)
			(justify left bottom)
		)
	)
	(property "Value" "M191X19"
		(at 2.54 5.08 0)
		(unlocked yes)
		(layer "F.Fab")
		(hide yes)
		(uuid "f217653a-6bc1-445f-81cf-6dd14cce8be5")
		(effects
			(font
				(size 1.1684 1.1684)
				(thickness 0.1016)
			)
			(justify left bottom)
		)
	)
	(property "Footprint" "CajitaAbierta_v07:1X19"
		(at 0 0 0)
		(unlocked yes)
		(layer "F.Fab")
		(hide yes)
		(uuid "b46db0e9-35b2-427e-9f34-b160b23ae3a6")
		(effects
			(font
				(size 1.27 1.27)
			)
		)
	)
	(property "Datasheet" ""
		(at 0 0 0)
		(unlocked yes)
		(layer "F.Fab")
		(hide yes)
		(uuid "03097e6a-b03c-4a23-bae5-6347d45b1aac")
		(effects
			(font
				(size 1.27 1.27)
			)
		)
	)
	(property "Description" ""
		(at 0 0 0)
		(unlocked yes)
		(layer "F.Fab")
		(hide yes)
		(uuid "59b0effa-9fc0-4632-b2c1-926d855812f9")
		(effects
			(font
				(size 1.27 1.27)
			)
		)
	)
	(fp_line
		(start -1.27 -0.635)
		(end -1.27 0.635)
		(stroke
			(width 0.2032)
			(type solid)
		)
		(layer "F.SilkS")
		(uuid "01a033b8-1f00-4700-afd2-576461713d71")
	)
	(fp_line
		(start -1.27 0.635)
		(end -0.635 1.27)
		(stroke
			(width 0.2032)
			(type solid)
		)
		(layer "F.SilkS")
		(uuid "89e3acfd-f40b-467e-8fa9-c2ffc7e0d24f")
	)
	(fp_line
		(start -0.635 -1.27)
		(end -1.27 -0.635)
		(stroke
			(width 0.2032)
			(type solid)
		)
		(layer "F.SilkS")
		(uuid "78c7320f-acdf-4046-aefa-f7160ac86e75")
	)
	(fp_line
		(start -0.635 -1.27)
		(end 0.635 -1.27)
		(stroke
			(width 0.2032)
			(type solid)
		)
		(layer "F.SilkS")
		(uuid "6a7e7949-774d-4bc9-8a95-60a3d73a2427")
	)
	(fp_line
		(start 0.635 -1.27)
		(end 1.27 -0.635)
		(stroke
			(width 0.2032)
			(type solid)
		)
		(layer "F.SilkS")
		(uuid "d5c5d774-fb3b-4296-b8c1-f60409d47331")
	)
	(fp_line
		(start 0.635 1.27)
		(end -0.635 1.27)
		(stroke
			(width 0.2032)
			(type solid)
		)
		(layer "F.SilkS")
		(uuid "77d88499-fa32-46a0-b4f7-348c78bd69c0")
	)
	(fp_line
		(start 1.27 -0.635)
		(end 1.905 -1.27)
		(stroke
			(width 0.2032)
			(type solid)
		)
		(layer "F.SilkS")
		(uuid "9f321ea8-d182-46d1-a45b-4ad873cdb723")
	)
	(fp_line
		(start 1.27 0.635)
		(end 0.635 1.27)
		(stroke
			(width 0.2032)
			(type solid)
		)
		(layer "F.SilkS")
		(uuid "24eaf35c-1e93-432e-a9dc-0299205337aa")
	)
	(fp_line
		(start 1.905 -1.27)
		(end 3.175 -1.27)
		(stroke
			(width 0.2032)
			(type solid)
		)
		(layer "F.SilkS")
		(uuid "22d5df9c-d903-4100-8aaf-90f5236b03c5")
	)
	(fp_line
		(start 1.905 1.27)
		(end 1.27 0.635)
		(stroke
			(width 0.2032)
			(type solid)
		)
		(layer "F.SilkS")
		(uuid "ea96648b-e458-4a48-a158-4434dd73bad9")
	)
	(fp_line
		(start 3.175 -1.27)
		(end 3.81 -0.635)
		(stroke
			(width 0.2032)
			(type solid)
		)
		(layer "F.SilkS")
		(uuid "dd8b7152-7aa3-45dd-9cb8-082100b6f25e")
	)
	(fp_line
		(start 3.175 1.27)
		(end 1.905 1.27)
		(stroke
			(width 0.2032)
			(type solid)
		)
		(layer "F.SilkS")
		(uuid "8489a864-8b8d-4ccb-bf1f-2410f9ca5852")
	)
	(fp_line
		(start 3.81 -0.635)
		(end 4.445 -1.27)
		(stroke
			(width 0.2032)
			(type solid)
		)
		(layer "F.SilkS")
		(uuid "007db3dd-3749-4bf9-add6-8cb71e913067")
	)
	(fp_line
		(start 3.81 0.635)
		(end 3.175 1.27)
		(stroke
			(width 0.2032)
			(type solid)
		)
		(layer "F.SilkS")
		(uuid "53abee21-05ac-4cfa-99f7-c4ed0e2f7d38")
	)
	(fp_line
		(start 4.445 -1.27)
		(end 5.715 -1.27)
		(stroke
			(width 0.2032)
			(type solid)
		)
		(layer "F.SilkS")
		(uuid "d54a4f96-43fc-47de-8a68-4c07ac6633a5")
	)
	(fp_line
		(start 4.445 1.27)
		(end 3.81 0.635)
		(stroke
			(width 0.2032)
			(type solid)
		)
		(layer "F.SilkS")
		(uuid "3c7729d2-fb76-4baa-bd98-a8f3e14086a4")
	)
	(fp_line
		(start 5.715 -1.27)
		(end 6.35 -0.635)
		(stroke
			(width 0.2032)
			(type solid)
		)
		(layer "F.SilkS")
		(uuid "a2ecfc63-e42b-4e5a-bbc2-e1a00d5ec6ff")
	)
	(fp_line
		(start 5.715 1.27)
		(end 4.445 1.27)
		(stroke
			(width 0.2032)
			(type solid)
		)
		(layer "F.SilkS")
		(uuid "2b6d3fd5-7fe0-4de6-b6ef-efd4baa6e479")
	)
	(fp_line
		(start 6.35 0.635)
		(end 5.715 1.27)
		(stroke
			(width 0.2032)
			(type solid)
		)
		(layer "F.SilkS")
		(uuid "8d879d2f-d236-45d0-a051-2a247caba0ee")
	)
	(fp_line
		(start 6.35 0.635)
		(end 6.985 1.27)
		(stroke
			(width 0.2032)
			(type solid)
		)
		(layer "F.SilkS")
		(uuid "c5108422-a9a3-49bd-991e-16111a43324b")
	)
	(fp_line
		(start 6.985 -1.27)
		(end 6.35 -0.635)
		(stroke
			(width 0.2032)
			(type solid)
		)
		(layer "F.SilkS")
		(uuid "dcfc58c5-b047-41d2-adfd-8cb04f7a672d")
	)
	(fp_line
		(start 6.985 -1.27)
		(end 8.255 -1.27)
		(stroke
			(width 0.2032)
			(type solid)
		)
		(layer "F.SilkS")
		(uuid "185d70a6-31ad-4b09-affe-c7e4f9716fc9")
	)
	(fp_line
		(start 8.255 -1.27)
		(end 8.89 -0.635)
		(stroke
			(width 0.2032)
			(type solid)
		)
		(layer "F.SilkS")
		(uuid "c078cc8b-dec2-4978-983b-81ae59a06528")
	)
	(fp_line
		(start 8.255 1.27)
		(end 6.985 1.27)
		(stroke
			(width 0.2032)
			(type solid)
		)
		(layer "F.SilkS")
		(uuid "21faeac1-b766-49fb-940d-f094277ae03e")
	)
	(fp_line
		(start 8.89 -0.635)
		(end 9.525 -1.27)
		(stroke
			(width 0.2032)
			(type solid)
		)
		(layer "F.SilkS")
		(uuid "c3ff0957-c821-4349-aa54-c250251d4c95")
	)
	(fp_line
		(start 8.89 0.635)
		(end 8.255 1.27)
		(stroke
			(width 0.2032)
			(type solid)
		)
		(layer "F.SilkS")
		(uuid "27969209-1eed-4334-a6cf-154495d2f601")
	)
	(fp_line
		(start 9.525 -1.27)
		(end 10.795 -1.27)
		(stroke
			(width 0.2032)
			(type solid)
		)
		(layer "F.SilkS")
		(uuid "232b5717-e97e-4a02-a24b-0379aa4ca0d6")
	)
	(fp_line
		(start 9.525 1.27)
		(end 8.89 0.635)
		(stroke
			(width 0.2032)
			(type solid)
		)
		(layer "F.SilkS")
		(uuid "a865f90b-f2b7-4de7-8652-49075c959b5b")
	)
	(fp_line
		(start 10.795 -1.27)
		(end 11.43 -0.635)
		(stroke
			(width 0.2032)
			(type solid)
		)
		(layer "F.SilkS")
		(uuid "fde2a63c-db0e-42e0-a1f3-9127179259d3")
	)
	(fp_line
		(start 10.795 1.27)
		(end 9.525 1.27)
		(stroke
			(width 0.2032)
			(type solid)
		)
		(layer "F.SilkS")
		(uuid "e73f29d0-21e9-44fd-8e04-fa2bd0d0914b")
	)
	(fp_line
		(start 11.43 -0.635)
		(end 12.065 -1.27)
		(stroke
			(width 0.2032)
			(type solid)
		)
		(layer "F.SilkS")
		(uuid "eb69ef18-1089-47c5-94ae-a3f4446f259f")
	)
	(fp_line
		(start 11.43 0.635)
		(end 10.795 1.27)
		(stroke
			(width 0.2032)
			(type solid)
		)
		(layer "F.SilkS")
		(uuid "3e2a5b92-fead-4e00-a131-e1d7007d18f4")
	)
	(fp_line
		(start 12.065 -1.27)
		(end 13.335 -1.27)
		(stroke
			(width 0.2032)
			(type solid)
		)
		(layer "F.SilkS")
		(uuid "8df1c28c-0193-4329-a5bd-c45ca9dbfc0e")
	)
	(fp_line
		(start 12.065 1.27)
		(end 11.43 0.635)
		(stroke
			(width 0.2032)
			(type solid)
		)
		(layer "F.SilkS")
		(uuid "fe6a4e1e-5625-4456-9720-63aedb1338d2")
	)
	(fp_line
		(start 13.335 -1.27)
		(end 13.97 -0.635)
		(stroke
			(width 0.2032)
			(type solid)
		)
		(layer "F.SilkS")
		(uuid "37f6448f-dcb2-4e2b-8e1f-82de20ed74e1")
	)
	(fp_line
		(start 13.335 1.27)
		(end 12.065 1.27)
		(stroke
			(width 0.2032)
			(type solid)
		)
		(layer "F.SilkS")
		(uuid "1657a445-f57c-4695-9150-39c99d480b4e")
	)
	(fp_line
		(start 13.97 0.635)
		(end 13.335 1.27)
		(stroke
			(width 0.2032)
			(type solid)
		)
		(layer "F.SilkS")
		(uuid "87398cbe-9267-4cec-8e99-725c06eecaac")
	)
	(fp_line
		(start 13.97 0.635)
		(end 14.605 1.27)
		(stroke
			(width 0.2032)
			(type solid)
		)
		(layer "F.SilkS")
		(uuid "46d4268e-5141-4ae5-83f5-e518a21c9947")
	)
	(fp_line
		(start 14.605 -1.27)
		(end 13.97 -0.635)
		(stroke
			(width 0.2032)
			(type solid)
		)
		(layer "F.SilkS")
		(uuid "69d99ee9-36bf-4629-9aff-8c3c9a53028f")
	)
	(fp_line
		(start 14.605 -1.27)
		(end 15.875 -1.27)
		(stroke
			(width 0.2032)
			(type solid)
		)
		(layer "F.SilkS")
		(uuid "dca1db8a-cd60-4b6c-ab0a-a9da6839d444")
	)
	(fp_line
		(start 15.875 -1.27)
		(end 16.51 -0.635)
		(stroke
			(width 0.2032)
			(type solid)
		)
		(layer "F.SilkS")
		(uuid "f01f1de0-4849-49bf-8106-454fc9e72004")
	)
	(fp_line
		(start 15.875 1.27)
		(end 14.605 1.27)
		(stroke
			(width 0.2032)
			(type solid)
		)
		(layer "F.SilkS")
		(uuid "00a290de-06c5-4da0-b939-a4f17529247e")
	)
	(fp_line
		(start 16.51 0.635)
		(end 15.875 1.27)
		(stroke
			(width 0.2032)
			(type solid)
		)
		(layer "F.SilkS")
		(uuid "704053f6-c20d-436b-818a-f38f6f4670a8")
	)
	(fp_line
		(start 16.51 0.635)
		(end 17.145 1.27)
		(stroke
			(width 0.2032)
			(type solid)
		)
		(layer "F.SilkS")
		(uuid "38cf5593-d0e3-4fcd-8f44-4da68723c1ea")
	)
	(fp_line
		(start 17.145 -1.27)
		(end 16.51 -0.635)
		(stroke
			(width 0.2032)
			(type solid)
		)
		(layer "F.SilkS")
		(uuid "1f6664d1-da1d-4c89-84f9-2b19f457309c")
	)
	(fp_line
		(start 17.145 -1.27)
		(end 18.415 -1.27)
		(stroke
			(width 0.2032)
			(type solid)
		)
		(layer "F.SilkS")
		(uuid "2298f0c3-cfcb-496c-86e5-5ec0d873055f")
	)
	(fp_line
		(start 18.415 -1.27)
		(end 19.05 -0.635)
		(stroke
			(width 0.2032)
			(type solid)
		)
		(layer "F.SilkS")
		(uuid "1dffda7b-d02c-4748-9bdb-80bbf04e5d7c")
	)
	(fp_line
		(start 18.415 1.27)
		(end 17.145 1.27)
		(stroke
			(width 0.2032)
			(type solid)
		)
		(layer "F.SilkS")
		(uuid "042823fd-87d6-4ca2-bf56-00c752ef2b56")
	)
	(fp_line
		(start 19.05 -0.635)
		(end 19.685 -1.27)
		(stroke
			(width 0.2032)
			(type solid)
		)
		(layer "F.SilkS")
		(uuid "c1cad0cc-f620-4435-b7ab-c11877b52b5e")
	)
	(fp_line
		(start 19.05 0.635)
		(end 18.415 1.27)
		(stroke
			(width 0.2032)
			(type solid)
		)
		(layer "F.SilkS")
		(uuid "ff9cbb9a-1be6-447d-b3d7-76937c92a6d7")
	)
	(fp_line
		(start 19.685 -1.27)
		(end 20.955 -1.27)
		(stroke
			(width 0.2032)
			(type solid)
		)
		(layer "F.SilkS")
		(uuid "6a25dfa5-158e-4ea5-acd5-43cb60c68de5")
	)
	(fp_line
		(start 19.685 1.27)
		(end 19.05 0.635)
		(stroke
			(width 0.2032)
			(type solid)
		)
		(layer "F.SilkS")
		(uuid "bbb740f0-edf3-4f62-ba6a-0bac9b89f34a")
	)
	(fp_line
		(start 20.955 -1.27)
		(end 21.59 -0.635)
		(stroke
			(width 0.2032)
			(type solid)
		)
		(layer "F.SilkS")
		(uuid "b1362afc-773e-4a4b-b710-2fd212bb5f72")
	)
	(fp_line
		(start 20.955 1.27)
		(end 19.685 1.27)
		(stroke
			(width 0.2032)
			(type solid)
		)
		(layer "F.SilkS")
		(uuid "809e9170-a915-4f9a-aff9-3edb0013e6c4")
	)
	(fp_line
		(start 21.59 -0.635)
		(end 22.225 -1.27)
		(stroke
			(width 0.2032)
			(type solid)
		)
		(layer "F.SilkS")
		(uuid "ee161714-e7e6-490a-817e-89a404899026")
	)
	(fp_line
		(start 21.59 0.635)
		(end 20.955 1.27)
		(stroke
			(width 0.2032)
			(type solid)
		)
		(layer "F.SilkS")
		(uuid "50b75ca1-590d-4c94-a3a1-ab75ffb61fec")
	)
	(fp_line
		(start 22.225 -1.27)
		(end 23.495 -1.27)
		(stroke
			(width 0.2032)
			(type solid)
		)
		(layer "F.SilkS")
		(uuid "4f39bfe2-4557-4e0a-bcd9-67035a07387d")
	)
	(fp_line
		(start 22.225 1.27)
		(end 21.59 0.635)
		(stroke
			(width 0.2032)
			(type solid)
		)
		(layer "F.SilkS")
		(uuid "ba73b128-9640-4201-8584-99f9a8f879be")
	)
	(fp_line
		(start 23.495 -1.27)
		(end 24.13 -0.635)
		(stroke
			(width 0.2032)
			(type solid)
		)
		(layer "F.SilkS")
		(uuid "8bfe992b-c078-40ee-a97d-e1971728fe32")
	)
	(fp_line
		(start 23.495 1.27)
		(end 22.225 1.27)
		(stroke
			(width 0.2032)
			(type solid)
		)
		(layer "F.SilkS")
		(uuid "86846ab1-4195-45be-8310-a45006a90ed7")
	)
	(fp_line
		(start 24.13 0.635)
		(end 23.495 1.27)
		(stroke
			(width 0.2032)
			(type solid)
		)
		(layer "F.SilkS")
		(uuid "c886999b-eb93-4978-9b9f-ed07d37fdbf7")
	)
	(fp_line
		(start 24.13 0.635)
		(end 24.765 1.27)
		(stroke
			(width 0.2032)
			(type solid)
		)
		(layer "F.SilkS")
		(uuid "050ffd4a-d255-432e-966b-41112f458bd9")
	)
	(fp_line
		(start 24.765 -1.27)
		(end 24.13 -0.635)
		(stroke
			(width 0.2032)
			(type solid)
		)
		(layer "F.SilkS")
		(uuid "4f899c6c-68bd-42e2-bb3e-39cb5016ae29")
	)
	(fp_line
		(start 24.765 -1.27)
		(end 26.035 -1.27)
		(stroke
			(width 0.2032)
			(type solid)
		)
		(layer "F.SilkS")
		(uuid "10217f00-9c4e-45b3-8c7f-a9d0c5b09b2a")
	)
	(fp_line
		(start 26.035 -1.27)
		(end 26.67 -0.635)
		(stroke
			(width 0.2032)
			(type solid)
		)
		(layer "F.SilkS")
		(uuid "cfe77bbe-dec1-4e95-9781-89d3d3986aa8")
	)
	(fp_line
		(start 26.035 1.27)
		(end 24.765 1.27)
		(stroke
			(width 0.2032)
			(type solid)
		)
		(layer "F.SilkS")
		(uuid "4fbe9870-3453-4b56-ae4f-3551e088fd67")
	)
	(fp_line
		(start 26.67 -0.635)
		(end 27.305 -1.27)
		(stroke
			(width 0.2032)
			(type solid)
		)
		(layer "F.SilkS")
		(uuid "596187a4-abec-48e0-9c37-24ebae88e6c5")
	)
	(fp_line
		(start 26.67 0.635)
		(end 26.035 1.27)
		(stroke
			(width 0.2032)
			(type solid)
		)
		(layer "F.SilkS")
		(uuid "2c50d556-2880-4f3e-ae9d-bb3610907022")
	)
	(fp_line
		(start 27.305 -1.27)
		(end 28.575 -1.27)
		(stroke
			(width 0.2032)
			(type solid)
		)
		(layer "F.SilkS")
		(uuid "e5c533ab-7b66-477e-9e4c-fad6ef99bea0")
	)
	(fp_line
		(start 27.305 1.27)
		(end 26.67 0.635)
		(stroke
			(width 0.2032)
			(type solid)
		)
		(layer "F.SilkS")
		(uuid "a2a4aa41-bc27-4dec-968b-2ceb0b4cc3b3")
	)
	(fp_line
		(start 28.575 -1.27)
		(end 29.21 -0.635)
		(stroke
			(width 0.2032)
			(type solid)
		)
		(layer "F.SilkS")
		(uuid "8b0df1a5-a382-43e0-9a7a-556d92ce32ec")
	)
	(fp_line
		(start 28.575 1.27)
		(end 27.305 1.27)
		(stroke
			(width 0.2032)
			(type solid)
		)
		(layer "F.SilkS")
		(uuid "2a3d287f-1e03-434c-b290-f9b1779ef3ce")
	)
	(fp_line
		(start 29.21 -0.635)
		(end 29.845 -1.27)
		(stroke
			(width 0.2032)
			(type solid)
		)
		(layer "F.SilkS")
		(uuid "6ef8eac9-362c-4686-94f6-d0b808d38506")
	)
	(fp_line
		(start 29.21 0.635)
		(end 28.575 1.27)
		(stroke
			(width 0.2032)
			(type solid)
		)
		(layer "F.SilkS")
		(uuid "33ac5555-ce58-45a8-9903-07df0db6f16b")
	)
	(fp_line
		(start 29.845 -1.27)
		(end 31.115 -1.27)
		(stroke
			(width 0.2032)
			(type solid)
		)
		(layer "F.SilkS")
		(uuid "547571f6-846f-4d4f-83c2-84689e2ac3df")
	)
	(fp_line
		(start 29.845 1.27)
		(end 29.21 0.635)
		(stroke
			(width 0.2032)
			(type solid)
		)
		(layer "F.SilkS")
		(uuid "0b7585f5-81bb-4897-96b8-f5057250b973")
	)
	(fp_line
		(start 31.115 -1.27)
		(end 31.75 -0.635)
		(stroke
			(width 0.2032)
			(type solid)
		)
		(layer "F.SilkS")
		(uuid "ac89d615-4b6f-41e8-8269-0819243548bc")
	)
	(fp_line
		(start 31.115 1.27)
		(end 29.845 1.27)
		(stroke
			(width 0.2032)
			(type solid)
		)
		(layer "F.SilkS")
		(uuid "7c40c544-a29e-40ac-a85e-2aab5368b7fb")
	)
	(fp_line
		(start 31.75 0.635)
		(end 31.115 1.27)
		(stroke
			(width 0.2032)
			(type solid)
		)
		(layer "F.SilkS")
		(uuid "bef563e9-7124-41b6-a8ba-8b1dff5019bf")
	)
	(fp_line
		(start 31.75 0.635)
		(end 32.385 1.27)
		(stroke
			(width 0.2032)
			(type solid)
		)
		(layer "F.SilkS")
		(uuid "94991f55-cd4f-4414-9d3c-1ba03fb54b18")
	)
	(fp_line
		(start 32.385 -1.27)
		(end 31.75 -0.635)
		(stroke
			(width 0.2032)
			(type solid)
		)
		(layer "F.SilkS")
		(uuid "72e7950b-2784-4ce9-8bdf-0c0d430cb619")
	)
	(fp_line
		(start 32.385 -1.27)
		(end 33.655 -1.27)
		(stroke
			(width 0.2032)
			(type solid)
		)
		(layer "F.SilkS")
		(uuid "fcf48de1-80b7-476e-94db-9b65d74e029c")
	)
	(fp_line
		(start 33.655 -1.27)
		(end 34.29 -0.635)
		(stroke
			(width 0.2032)
			(type solid)
		)
		(layer "F.SilkS")
		(uuid "38c902a4-ff27-467b-983f-25aec204940b")
	)
	(fp_line
		(start 33.655 1.27)
		(end 32.385 1.27)
		(stroke
			(width 0.2032)
			(type solid)
		)
		(layer "F.SilkS")
		(uuid "eda9a26a-96c7-4249-b046-1c57ac361f4a")
	)
	(fp_line
		(start 34.29 0.635)
		(end 33.655 1.27)
		(stroke
			(width 0.2032)
			(type solid)
		)
		(layer "F.SilkS")
		(uuid "575b835b-3321-4f10-8394-c290998083c0")
	)
	(fp_line
		(start 34.29 0.635)
		(end 34.925 1.27)
		(stroke
			(width 0.2032)
			(type solid)
		)
		(layer "F.SilkS")
		(uuid "d6374f6a-e00d-48a1-a9ab-b57fa310e50a")
	)
	(fp_line
		(start 34.925 -1.27)
		(end 34.29 -0.635)
		(stroke
			(width 0.2032)
			(type solid)
		)
		(layer "F.SilkS")
		(uuid "c49948ca-d35e-4457-b4c7-7f6bc645886d")
	)
	(fp_line
		(start 34.925 -1.27)
		(end 36.195 -1.27)
		(stroke
			(width 0.2032)
			(type solid)
		)
		(layer "F.SilkS")
		(uuid "bd985171-dec0-4338-931b-980d09e6d10c")
	)
	(fp_line
		(start 36.195 -1.27)
		(end 36.83 -0.635)
		(stroke
			(width 0.2032)
			(type solid)
		)
		(layer "F.SilkS")
		(uuid "3a132c5f-ce45-4c75-91f4-cd34b9aa7130")
	)
	(fp_line
		(start 36.195 1.27)
		(end 34.925 1.27)
		(stroke
			(width 0.2032)
			(type solid)
		)
		(layer "F.SilkS")
		(uuid "2449d3ac-a644-44d9-8a18-9db7dc520b43")
	)
	(fp_line
		(start 36.83 0.635)
		(end 36.195 1.27)
		(stroke
			(width 0.2032)
			(type solid)
		)
		(layer "F.SilkS")
		(uuid "6da37f17-cb46-404d-818f-9716eb15a260")
	)
	(fp_line
		(start 36.83 0.635)
		(end 37.465 1.27)
		(stroke
			(width 0.2032)
			(type solid)
		)
		(layer "F.SilkS")
		(uuid "7f7b1bb1-bc38-4936-b09c-f4f75f0d5e3b")
	)
	(fp_line
		(start 37.465 -1.27)
		(end 36.83 -0.635)
		(stroke
			(width 0.2032)
			(type solid)
		)
		(layer "F.SilkS")
		(uuid "0a51ad8a-797a-4b32-ba0a-10e8a17835b0")
	)
	(fp_line
		(start 37.465 -1.27)
		(end 38.735 -1.27)
		(stroke
			(width 0.2032)
			(type solid)
		)
		(layer "F.SilkS")
		(uuid "88197d33-8d8f-45a8-8372-c8cc3846c6a4")
	)
	(fp_line
		(start 38.735 -1.27)
		(end 39.37 -0.635)
		(stroke
			(width 0.2032)
			(type solid)
		)
		(layer "F.SilkS")
		(uuid "8cb58d23-19b0-45c2-8213-d95dcb63a56d")
	)
	(fp_line
		(start 38.735 1.27)
		(end 37.465 1.27)
		(stroke
			(width 0.2032)
			(type solid)
		)
		(layer "F.SilkS")
		(uuid "9201be77-caae-4e0d-a0d2-202c2b13ecf3")
	)
	(fp_line
		(start 39.37 0.635)
		(end 38.735 1.27)
		(stroke
			(width 0.2032)
			(type solid)
		)
		(layer "F.SilkS")
		(uuid "46195440-abf0-4ede-8cae-07b1b7d084ef")
	)
	(fp_line
		(start 39.37 0.635)
		(end 40.005 1.27)
		(stroke
			(width 0.2032)
			(type solid)
		)
		(layer "F.SilkS")
		(uuid "9d1fb2e9-44bd-4afa-b935-08312112ab3f")
	)
	(fp_line
		(start 40.005 -1.27)
		(end 39.37 -0.635)
		(stroke
			(width 0.2032)
			(type solid)
		)
		(layer "F.SilkS")
		(uuid "b2f975c5-7cb5-41a9-a879-ec09a6a58edc")
	)
	(fp_line
		(start 40.005 -1.27)
		(end 41.275 -1.27)
		(stroke
			(width 0.2032)
			(type solid)
		)
		(layer "F.SilkS")
		(uuid "3cfb5b97-9d0f-427d-b37b-7daf7e3adf5d")
	)
	(fp_line
		(start 41.275 -1.27)
		(end 41.91 -0.635)
		(stroke
			(width 0.2032)
			(type solid)
		)
		(layer "F.SilkS")
		(uuid "aab55b30-050d-4693-987f-db4bea278438")
	)
	(fp_line
		(start 41.275 1.27)
		(end 40.005 1.27)
		(stroke
			(width 0.2032)
			(type solid)
		)
		(layer "F.SilkS")
		(uuid "ed97327e-58af-491d-856a-fcb5509b47fc")
	)
	(fp_line
		(start 41.91 0.635)
		(end 41.275 1.27)
		(stroke
			(width 0.2032)
			(type solid)
		)
		(layer "F.SilkS")
		(uuid "987bb5cb-ba46-4cd8-a6fd-40e6ee76ffe7")
	)
	(fp_line
		(start 41.91 0.635)
		(end 42.545 1.27)
		(stroke
			(width 0.2032)
			(type solid)
		)
		(layer "F.SilkS")
		(uuid "eb769297-aca9-4fde-a966-3af67d4ff20f")
	)
	(fp_line
		(start 42.545 -1.27)
		(end 41.91 -0.635)
		(stroke
			(width 0.2032)
			(type solid)
		)
		(layer "F.SilkS")
		(uuid "0eced32d-a41b-4837-b9bd-fcfad4e46781")
	)
	(fp_line
		(start 42.545 -1.27)
		(end 43.815 -1.27)
		(stroke
			(width 0.2032)
			(type solid)
		)
		(layer "F.SilkS")
		(uuid "1da32e62-3b5a-468d-b186-dbce79cdb028")
	)
	(fp_line
		(start 43.815 -1.27)
		(end 44.45 -0.635)
		(stroke
			(width 0.2032)
			(type solid)
		)
		(layer "F.SilkS")
		(uuid "402ea11e-be38-44c5-8d1c-71dd4d457bb3")
	)
	(fp_line
		(start 43.815 1.27)
		(end 42.545 1.27)
		(stroke
			(width 0.2032)
			(type solid)
		)
		(layer "F.SilkS")
		(uuid "8ef302a9-b0b3-49cf-b1c6-8b75031e6d82")
	)
	(fp_line
		(start 44.45 0.635)
		(end 43.815 1.27)
		(stroke
			(width 0.2032)
			(type solid)
		)
		(layer "F.SilkS")
		(uuid "c48b1212-4eec-4259-937c-ba4a2eb928c9")
	)
	(fp_line
		(start 44.45 0.635)
		(end 45.085 1.27)
		(stroke
			(width 0.2032)
			(type solid)
		)
		(layer "F.SilkS")
		(uuid "a808d273-eeab-4a7d-b844-1c11772ccede")
	)
	(fp_line
		(start 45.085 -1.27)
		(end 44.45 -0.635)
		(stroke
			(width 0.2032)
			(type solid)
		)
		(layer "F.SilkS")
		(uuid "81b97fc3-5952-40bf-ab01-bdd471624a60")
	)
	(fp_line
		(start 45.085 -1.27)
		(end 46.355 -1.27)
		(stroke
			(width 0.2032)
			(type solid)
		)
		(layer "F.SilkS")
		(uuid "14c0623d-95ff-4080-a642-a9746cf1bd8f")
	)
	(fp_line
		(start 46.355 -1.27)
		(end 46.99 -0.635)
		(stroke
			(width 0.2032)
			(type solid)
		)
		(layer "F.SilkS")
		(uuid "e7a6bcd6-aa37-42d3-9894-65b4f2b40b49")
	)
	(fp_line
		(start 46.355 1.27)
		(end 45.085 1.27)
		(stroke
			(width 0.2032)
			(type solid)
		)
		(layer "F.SilkS")
		(uuid "043046e7-c95e-437a-b7c7-f41d4d427f31")
	)
	(fp_line
		(start 46.99 -0.635)
		(end 46.99 0.635)
		(stroke
			(width 0.2032)
			(type solid)
		)
		(layer "F.SilkS")
		(uuid "30e4f964-1cec-470e-b12f-c208ee45bcb1")
	)
	(fp_line
		(start 46.99 0.635)
		(end 46.355 1.27)
		(stroke
			(width 0.2032)
			(type solid)
		)
		(layer "F.SilkS")
		(uuid "098b734d-a24e-462b-8711-f9fa195d7d3d")
	)
	(fp_poly
		(pts
			(xy -0.254 0.254) (xy 0.254 0.254) (xy 0.254 -0.254) (xy -0.254 -0.254)
		)
		(stroke
			(width 0)
			(type default)
		)
		(fill solid)
		(layer "F.Fab")
		(uuid "4dbafd7b-33de-4615-92e3-85df5a580d92")
	)
	(fp_poly
		(pts
			(xy 2.286 0.254) (xy 2.794 0.254) (xy 2.794 -0.254) (xy 2.286 -0.254)
		)
		(stroke
			(width 0)
			(type default)
		)
		(fill solid)
		(layer "F.Fab")
		(uuid "ae00c904-bdbe-47e3-8d8b-27983cde8536")
	)
	(fp_poly
		(pts
			(xy 4.826 0.254) (xy 5.334 0.254) (xy 5.334 -0.254) (xy 4.826 -0.254)
		)
		(stroke
			(width 0)
			(type default)
		)
		(fill solid)
		(layer "F.Fab")
		(uuid "9d4225ff-5bce-4bbc-b5d5-40d929e22d17")
	)
	(fp_poly
		(pts
			(xy 7.366 0.254) (xy 7.874 0.254) (xy 7.874 -0.254) (xy 7.366 -0.254)
		)
		(stroke
			(width 0)
			(type default)
		)
		(fill solid)
		(layer "F.Fab")
		(uuid "80478360-269a-4c35-8ec1-79dc0f3c46e3")
	)
	(fp_poly
		(pts
			(xy 9.906 0.254) (xy 10.414 0.254) (xy 10.414 -0.254) (xy 9.906 -0.254)
		)
		(stroke
			(width 0)
			(type default)
		)
		(fill solid)
		(layer "F.Fab")
		(uuid "682b6bf3-ae46-4177-a67e-a3b0b0121c96")
	)
	(fp_poly
		(pts
			(xy 12.446 0.254) (xy 12.954 0.254) (xy 12.954 -0.254) (xy 12.446 -0.254)
		)
		(stroke
			(width 0)
			(type default)
		)
		(fill solid)
		(layer "F.Fab")
		(uuid "2c168256-5841-418f-ae26-0dd418b77f2f")
	)
	(fp_poly
		(pts
			(xy 14.986 0.254) (xy 15.494 0.254) (xy 15.494 -0.254) (xy 14.986 -0.254)
		)
		(stroke
			(width 0)
			(type default)
		)
		(fill solid)
		(layer "F.Fab")
		(uuid "aede9c61-87a1-406f-b247-8079a40118d9")
	)
	(fp_poly
		(pts
			(xy 17.526 0.254) (xy 18.034 0.254) (xy 18.034 -0.254) (xy 17.526 -0.254)
		)
		(stroke
			(width 0)
			(type default)
		)
		(fill solid)
		(layer "F.Fab")
		(uuid "efda0a25-a2ee-460c-b818-41fc3264a5e4")
	)
	(fp_poly
		(pts
			(xy 20.066 0.254) (xy 20.574 0.254) (xy 20.574 -0.254) (xy 20.066 -0.254)
		)
		(stroke
			(width 0)
			(type default)
		)
		(fill solid)
		(layer "F.Fab")
		(uuid "61f3d85f-b355-497c-b44c-d70a4eed1233")
	)
	(fp_poly
		(pts
			(xy 22.606 0.254) (xy 23.114 0.254) (xy 23.114 -0.254) (xy 22.606 -0.254)
		)
		(stroke
			(width 0)
			(type default)
		)
		(fill solid)
		(layer "F.Fab")
		(uuid "dcdd3a89-4440-46c6-9266-acae60f7a45d")
	)
	(fp_poly
		(pts
			(xy 25.146 0.254) (xy 25.654 0.254) (xy 25.654 -0.254) (xy 25.146 -0.254)
		)
		(stroke
			(width 0)
			(type default)
		)
		(fill solid)
		(layer "F.Fab")
		(uuid "9e581172-5d61-43c9-a657-5f25954b1598")
	)
	(fp_poly
		(pts
			(xy 27.686 0.254) (xy 28.194 0.254) (xy 28.194 -0.254) (xy 27.686 -0.254)
		)
		(stroke
			(width 0)
			(type default)
		)
		(fill solid)
		(layer "F.Fab")
		(uuid "6c5e1efa-71e8-4d8c-9587-542c58c0f1ae")
	)
	(fp_poly
		(pts
			(xy 30.226 0.254) (xy 30.734 0.254) (xy 30.734 -0.254) (xy 30.226 -0.254)
		)
		(stroke
			(width 0)
			(type default)
		)
		(fill solid)
		(layer "F.Fab")
		(uuid "e60f31a4-b0e3-4d6b-b6e7-d1e2f07bfe79")
	)
	(fp_poly
		(pts
			(xy 32.766 0.254) (xy 33.274 0.254) (xy 33.274 -0.254) (xy 32.766 -0.254)
		)
		(stroke
			(width 0)
			(type default)
		)
		(fill solid)
		(layer "F.Fab")
		(uuid "ce88f6a5-4b02-42a6-b5ef-094cf0ad5a8e")
	)
	(fp_poly
		(pts
			(xy 35.306 0.254) (xy 35.814 0.254) (xy 35.814 -0.254) (xy 35.306 -0.254)
		)
		(stroke
			(width 0)
			(type default)
		)
		(fill solid)
		(layer "F.Fab")
		(uuid "e8a60ac4-d25b-4039-8542-69855fb14fa2")
	)
	(fp_poly
		(pts
			(xy 37.846 0.254) (xy 38.354 0.254) (xy 38.354 -0.254) (xy 37.846 -0.254)
		)
		(stroke
			(width 0)
			(type default)
		)
		(fill solid)
		(layer "F.Fab")
		(uuid "f2a6c4fa-616b-4e61-b766-83f541ee7a7d")
	)
	(fp_poly
		(pts
			(xy 40.386 0.254) (xy 40.894 0.254) (xy 40.894 -0.254) (xy 40.386 -0.254)
		)
		(stroke
			(width 0)
			(type default)
		)
		(fill solid)
		(layer "F.Fab")
		(uuid "a9fa1fe6-55b3-42cd-b5b6-dc94e0531333")
	)
	(fp_poly
		(pts
			(xy 42.926 0.254) (xy 43.434 0.254) (xy 43.434 -0.254) (xy 42.926 -0.254)
		)
		(stroke
			(width 0)
			(type default)
		)
		(fill solid)
		(layer "F.Fab")
		(uuid "b0d1eee5-1781-4670-9a10-6dbbaedfe805")
	)
	(fp_poly
		(pts
			(xy 45.466 0.254) (xy 45.974 0.254) (xy 45.974 -0.254) (xy 45.466 -0.254)
		)
		(stroke
			(width 0)
			(type default)
		)
		(fill solid)
		(layer "F.Fab")
		(uuid "6dfa4c73-8225-4929-a692-abc896153547")
	)
	(pad "1" thru_hole circle
		(at 0 0 90)
		(size 1.8796 1.8796)
		(drill 1.016)
		(layers "*.Cu" "*.Mask")
		(remove_unused_layers no)
		(solder_mask_margin 0.0508)
		(thermal_bridge_angle 0)
		(uuid "5c4c8d46-39b7-423f-84a0-718082c324ea")
	)
	(pad "2" thru_hole circle
		(at 2.54 0 90)
		(size 1.8796 1.8796)
		(drill 1.016)
		(layers "*.Cu" "*.Mask")
		(remove_unused_layers no)
		(solder_mask_margin 0.0508)
		(thermal_bridge_angle 0)
		(uuid "b3c68598-228c-4335-9b57-be2d18863693")
	)
	(pad "3" thru_hole circle
		(at 5.08 0 90)
		(size 1.8796 1.8796)
		(drill 1.016)
		(layers "*.Cu" "*.Mask")
		(remove_unused_layers no)
		(solder_mask_margin 0.0508)
		(thermal_bridge_angle 0)
		(uuid "3ec4fba6-30cf-4d39-b03b-a26dd990400c")
	)
	(pad "4" thru_hole circle
		(at 7.62 0 90)
		(size 1.8796 1.8796)
		(drill 1.016)
		(layers "*.Cu" "*.Mask")
		(remove_unused_layers no)
		(solder_mask_margin 0.0508)
		(thermal_bridge_angle 0)
		(uuid "5bfdd48e-103a-41b1-8fc0-8cd14e6a228c")
	)
	(pad "5" thru_hole circle
		(at 10.16 0 90)
		(size 1.8796 1.8796)
		(drill 1.016)
		(layers "*.Cu" "*.Mask")
		(remove_unused_layers no)
		(solder_mask_margin 0.0508)
		(thermal_bridge_angle 0)
		(uuid "554b0d51-c2c5-4618-a7d0-efb30f79345e")
	)
	(pad "6" thru_hole circle
		(at 12.7 0 90)
		(size 1.8796 1.8796)
		(drill 1.016)
		(layers "*.Cu" "*.Mask")
		(remove_unused_layers no)
		(solder_mask_margin 0.0508)
		(thermal_bridge_angle 0)
		(uuid "45bec8c7-10f7-4876-ba79-029dd44c6643")
	)
	(pad "7" thru_hole circle
		(at 15.24 0 90)
		(size 1.8796 1.8796)
		(drill 1.016)
		(layers "*.Cu" "*.Mask")
		(remove_unused_layers no)
		(solder_mask_margin 0.0508)
		(thermal_bridge_angle 0)
		(uuid "8b4fedf2-b8e3-417d-8dc4-386927906036")
	)
	(pad "8" thru_hole circle
		(at 17.78 0 90)
		(size 1.8796 1.8796)
		(drill 1.016)
		(layers "*.Cu" "*.Mask")
		(remove_unused_layers no)
		(solder_mask_margin 0.0508)
		(thermal_bridge_angle 0)
		(uuid "04bbbb5b-2e77-46d5-8f1d-0ee7782434db")
	)
	(pad "9" thru_hole circle
		(at 20.32 0 90)
		(size 1.8796 1.8796)
		(drill 1.016)
		(layers "*.Cu" "*.Mask")
		(remove_unused_layers no)
		(solder_mask_margin 0.0508)
		(thermal_bridge_angle 0)
		(uuid "c91ae9ee-017d-4c95-931f-7e8eb39ef09b")
	)
	(pad "10" thru_hole circle
		(at 22.86 0 90)
		(size 1.8796 1.8796)
		(drill 1.016)
		(layers "*.Cu" "*.Mask")
		(remove_unused_layers no)
		(solder_mask_margin 0.0508)
		(thermal_bridge_angle 0)
		(uuid "7ac6f2a0-995d-4449-988f-4e062169d328")
	)
	(pad "11" thru_hole circle
		(at 25.4 0 90)
		(size 1.8796 1.8796)
		(drill 1.016)
		(layers "*.Cu" "*.Mask")
		(remove_unused_layers no)
		(solder_mask_margin 0.0508)
		(thermal_bridge_angle 0)
		(uuid "2531603d-30b3-4235-a197-6d766a00c11d")
	)
	(pad "12" thru_hole circle
		(at 27.94 0 90)
		(size 1.8796 1.8796)
		(drill 1.016)
		(layers "*.Cu" "*.Mask")
		(remove_unused_layers no)
		(solder_mask_margin 0.0508)
		(thermal_bridge_angle 0)
		(uuid "b4e622e4-03c6-4529-b5f1-2847ef4025dd")
	)
	(pad "13" thru_hole circle
		(at 30.48 0 90)
		(size 1.8796 1.8796)
		(drill 1.016)
		(layers "*.Cu" "*.Mask")
		(remove_unused_layers no)
		(solder_mask_margin 0.0508)
		(thermal_bridge_angle 0)
		(uuid "dda9003f-3eb8-44bf-9c0e-b4a64cec3f91")
	)
	(pad "14" thru_hole circle
		(at 33.02 0 90)
		(size 1.8796 1.8796)
		(drill 1.016)
		(layers "*.Cu" "*.Mask")
		(remove_unused_layers no)
		(solder_mask_margin 0.0508)
		(thermal_bridge_angle 0)
		(uuid "4a54d4ee-c885-4f2b-a0ac-957c7156bfae")
	)
	(pad "15" thru_hole circle
		(at 35.56 0 90)
		(size 1.8796 1.8796)
		(drill 1.016)
		(layers "*.Cu" "*.Mask")
		(remove_unused_layers no)
		(solder_mask_margin 0.0508)
		(thermal_bridge_angle 0)
		(uuid "3603e077-40e2-41d7-a6df-566ad42c8883")
	)
	(pad "16" thru_hole circle
		(at 38.1 0 90)
		(size 1.8796 1.8796)
		(drill 1.016)
		(layers "*.Cu" "*.Mask")
		(remove_unused_layers no)
		(solder_mask_margin 0.0508)
		(thermal_bridge_angle 0)
		(uuid "8682b904-5c34-4cff-a62b-b0f476c9f7fb")
	)
	(pad "17" thru_hole circle
		(at 40.64 0 90)
		(size 1.8796 1.8796)
		(drill 1.016)
		(layers "*.Cu" "*.Mask")
		(remove_unused_layers no)
		(solder_mask_margin 0.0508)
		(thermal_bridge_angle 0)
		(uuid "c62415bc-eb02-494d-99be-149957675994")
	)
	(pad "18" thru_hole circle
		(at 43.18 0 90)
		(size 1.8796 1.8796)
		(drill 1.016)
		(layers "*.Cu" "*.Mask")
		(remove_unused_layers no)
		(solder_mask_margin 0.0508)
		(thermal_bridge_angle 0)
		(uuid "859e300a-a49f-4f15-afd2-886afe6a59c2")
	)
	(pad "19" thru_hole circle
		(at 45.72 0 90)
		(size 1.8796 1.8796)
		(drill 1.016)
		(layers "*.Cu" "*.Mask")
		(remove_unused_layers no)
		(solder_mask_margin 0.0508)
		(thermal_bridge_angle 0)
		(uuid "3cb20440-e17c-491e-9916-b5bb5d874ed9")
	)
)