(footprint "alc_logo" (version 20211014) (generator pcbnew)
  (layer "F.Cu")
  (tedit 0)
  (fp_text reference "REF**" (at 0 -6.35 unlocked) (layer "F.Fab")
    (effects (font (size 1 1) (thickness 0.15)))
    (tstamp dab82996-663d-4365-b347-450f692d2147)
  )
  (fp_text value "alc_logo" (at 0 5.08 unlocked) (layer "F.Fab")
    (effects (font (size 1 1) (thickness 0.15)))
    (tstamp 69556a8d-d890-4610-8ba5-863ca2002c41)
  )
  (fp_text user "${REFERENCE}" (at 0 6.35 unlocked) (layer "F.Fab")
    (effects (font (size 1 1) (thickness 0.15)))
    (tstamp a1bf27e3-be6c-47f3-846c-4024a1b6e712)
  )
  (fp_poly (pts
      (xy -1.987099 1.493241)
      (xy -2.982596 1.493241)
      (xy -2.982596 -3.484233)
      (xy -1.987099 -3.484233)
    ) (layer "F.SilkS") (width 0.2) (fill solid) (tstamp 21d7203c-d5c3-4050-9412-9fc03fadcd64))
  (fp_poly (pts
      (xy -3.97809 3.484233)
      (xy -7.960069 3.484233)
      (xy -7.960069 0.497748)
      (xy -5.523984 0.497748)
      (xy -5.523984 1.493242)
      (xy -6.964576 1.493242)
      (xy -6.964576 2.488737)
      (xy -4.973583 2.488737)
      (xy -4.973583 -0.497747)
      (xy -7.960069 -0.497747)
      (xy -7.960069 -1.493242)
      (xy -3.97809 -1.493242)
    ) (layer "F.SilkS") (width 0.2) (fill solid) (tstamp 2bca565b-57e4-4c43-8f75-a870b6825752))
  (fp_poly (pts
      (xy -1.987099 3.484232)
      (xy -2.982596 3.484232)
      (xy -2.982596 2.488736)
      (xy -1.987099 2.488736)
    ) (layer "F.SilkS") (width 0.2) (fill solid) (tstamp 7d1bcaa5-879c-4adb-a2b0-d6d3825491ef))
  (fp_poly (pts
      (xy -0.003887 2.488737)
      (xy 1.987105 2.488737)
      (xy 1.987105 1.493242)
      (xy 2.982599 1.493242)
      (xy 2.982599 3.484233)
      (xy -0.999379 3.484233)
      (xy -0.999384 3.484232)
      (xy -0.999384 -3.484233)
      (xy -0.003887 -3.484233)
    ) (layer "F.SilkS") (width 0.2) (fill solid) (tstamp 9c282e02-ca81-45cb-a734-69b6f1e58ce3))
  (fp_poly (pts
      (xy 7.96007 0.497748)
      (xy 6.964575 0.497748)
      (xy 6.964575 -0.497747)
      (xy 4.973584 -0.497747)
      (xy 4.973584 2.488737)
      (xy 6.964575 2.488737)
      (xy 6.964575 1.493242)
      (xy 7.96007 1.493242)
      (xy 7.96007 3.484233)
      (xy 3.978091 3.484233)
      (xy 3.978091 -1.493242)
      (xy 7.96007 -1.493242)
    ) (layer "F.SilkS") (width 0.2) (fill solid) (tstamp d9657ee1-8a60-42e8-9de1-6111dc660272))
  (group "" (id ea5d055d-884d-46dd-8192-d7390c7d4516)
    (members
      21d7203c-d5c3-4050-9412-9fc03fadcd64
      2bca565b-57e4-4c43-8f75-a870b6825752
      7d1bcaa5-879c-4adb-a2b0-d6d3825491ef
      9c282e02-ca81-45cb-a734-69b6f1e58ce3
      d9657ee1-8a60-42e8-9de1-6111dc660272
    )
  )
)
