(footprint "pad_with_hole" (version 20221018) (generator pcbnew)
  (layer "F.Cu")
  (descr "Through hole straight pin header, 1x01, 2.54mm pitch, single row")
  (tags "Through hole pin header THT 1x01 2.54mm single row")
  (attr through_hole)
  (fp_text reference "REF**" (at 0 -2.33) (layer "F.SilkS")
      (effects (font (size 1 1) (thickness 0.15)))
    (tstamp 6c50d304-4606-47dc-966e-5ce9cce54912)
  )
  (fp_text value "pad_with_hole" (at 0 2.33) (layer "F.Fab")
      (effects (font (size 1 1) (thickness 0.15)))
    (tstamp 86a9f2cd-c84c-4f67-881e-c331171fcf5a)
  )
  (fp_text user "${REFERENCE}" (at 0 -3.81 180) (layer "F.Fab")
      (effects (font (size 1 1) (thickness 0.15)))
    (tstamp 6976de06-a21f-4558-b5c2-96b2fac0f546)
  )
  (fp_line (start -1.33 -1.33) (end 0 -1.33)
    (stroke (width 0.12) (type solid)) (layer "F.SilkS") (tstamp 0d1844d8-3968-40e8-a883-14d5e2cea336))
  (fp_line (start -1.33 0) (end -1.33 -1.33)
    (stroke (width 0.12) (type solid)) (layer "F.SilkS") (tstamp f0354a49-62ac-41dc-8301-329bb549fb27))
  (fp_line (start -1.33 1.27) (end -1.33 1.33)
    (stroke (width 0.12) (type solid)) (layer "F.SilkS") (tstamp 9785722f-c04d-4c74-9491-126777973d65))
  (fp_line (start -1.33 1.27) (end 1.33 1.27)
    (stroke (width 0.12) (type solid)) (layer "F.SilkS") (tstamp 11d7a6c3-221d-4331-b595-0d9130e005e7))
  (fp_line (start -1.33 1.33) (end 1.33 1.33)
    (stroke (width 0.12) (type solid)) (layer "F.SilkS") (tstamp 79e2f484-8526-4235-8ecf-1b6fc52267cb))
  (fp_line (start 1.33 1.27) (end 1.33 1.33)
    (stroke (width 0.12) (type solid)) (layer "F.SilkS") (tstamp 8acdf3e9-f57b-4971-921b-addfdd7d3c94))
  (fp_line (start -1.8 -1.8) (end -1.8 1.8)
    (stroke (width 0.05) (type solid)) (layer "F.CrtYd") (tstamp 8f0947d6-3894-4eae-bf45-a32c3dc2459d))
  (fp_line (start -1.8 1.8) (end 1.8 1.8)
    (stroke (width 0.05) (type solid)) (layer "F.CrtYd") (tstamp 5044617d-a06e-4e10-8542-74d0bf808891))
  (fp_line (start 1.8 -1.8) (end -1.8 -1.8)
    (stroke (width 0.05) (type solid)) (layer "F.CrtYd") (tstamp f85def44-6cb2-4b98-be73-bc1b5313c4b5))
  (fp_line (start 1.8 1.8) (end 1.8 -1.8)
    (stroke (width 0.05) (type solid)) (layer "F.CrtYd") (tstamp 5949315c-51f8-4819-b018-03e8f8c7909c))
  (fp_line (start -1.27 -0.635) (end -0.635 -1.27)
    (stroke (width 0.1) (type solid)) (layer "F.Fab") (tstamp adc10770-1723-488c-8232-7f0ad2c7cace))
  (fp_line (start -1.27 1.27) (end -1.27 -0.635)
    (stroke (width 0.1) (type solid)) (layer "F.Fab") (tstamp 1e1e093d-57ed-4801-8603-c7acae013741))
  (fp_line (start -0.635 -1.27) (end 1.27 -1.27)
    (stroke (width 0.1) (type solid)) (layer "F.Fab") (tstamp e7d64334-39df-49f8-834e-0ac93da15a5b))
  (fp_line (start 1.27 -1.27) (end 1.27 1.27)
    (stroke (width 0.1) (type solid)) (layer "F.Fab") (tstamp 1033fa55-0d33-4394-8b55-78af68f26749))
  (fp_line (start 1.27 1.27) (end -1.27 1.27)
    (stroke (width 0.1) (type solid)) (layer "F.Fab") (tstamp f25c5088-ca29-4940-8a9f-a773d953f951))
  (pad "1" thru_hole circle (at 0 0) (size 2.5 2.5) (drill 1.4) (layers "*.Cu" "*.Mask") (tstamp bf29d5b2-1ed9-48cf-a932-2258e5e431d0))
  (model "${KICAD6_3DMODEL_DIR}/Connector_PinHeader_2.54mm.3dshapes/PinHeader_1x01_P2.54mm_Vertical.wrl"
    (offset (xyz 0 0 0))
    (scale (xyz 1 1 1))
    (rotate (xyz 0 0 0))
  )
)
