(footprint "SCREWTERMINAL-3.5MM-3-NS"
	(version 20240108)
	(generator "pcbnew")
	(generator_version "8.0")
	(layer "F.Cu")
	(descr "Screw Terminal  3.5mm Pitch -3 Pin PTH &ndash; NO SILK\n\nNo silkscreen outline. tDoc layer (51) indicates connector footprint.\n\nSpecifications:\n\n• Pin count: 3\n• Pin pitch: 3.5mm/138mil\n\nDatasheet referenced for footprint\n\nExample device(s):\n\n• CONN_03")
	(property "Reference" "REF**"
		(at 2.159 -3.683 0)
		(unlocked yes)
		(layer "F.SilkS")
		(uuid "691d082f-e8c0-4c40-ab7e-fc1ff09b6f30")
		(effects
			(font
				(size 0.48768 0.48768)
				(thickness 0.12192)
			)
			(justify left bottom)
		)
	)
	(property "Value" "SCREWTERMINAL-3.5MM-3-NS"
		(at 2.032 4.572 0)
		(unlocked yes)
		(layer "F.Fab")
		(uuid "a3335d95-a321-4479-9894-bcdd662f18b9")
		(effects
			(font
				(size 0.48768 0.48768)
				(thickness 0.12192)
			)
			(justify left bottom)
		)
	)
	(property "Footprint" ""
		(at 0 0 0)
		(unlocked yes)
		(layer "F.Fab")
		(hide yes)
		(uuid "cfd078b2-cb59-4a1c-bfde-1b1fa3ece49c")
		(effects
			(font
				(size 1.27 1.27)
			)
		)
	)
	(property "Datasheet" ""
		(at 0 0 0)
		(unlocked yes)
		(layer "F.Fab")
		(hide yes)
		(uuid "aa4c1995-6979-4945-9d17-7dcd474c1f69")
		(effects
			(font
				(size 1.27 1.27)
			)
		)
	)
	(property "Description" ""
		(at 0 0 0)
		(unlocked yes)
		(layer "F.Fab")
		(hide yes)
		(uuid "a1667b79-d98c-4911-8b3f-1b059372146d")
		(effects
			(font
				(size 1.27 1.27)
			)
		)
	)
	(fp_line
		(start -2.25 1.35)
		(end -2.25 2.35)
		(stroke
			(width 0.2032)
			(type solid)
		)
		(layer "F.Fab")
		(uuid "bcdaf354-0c83-4ebb-bddc-43a2a6ad3a47")
	)
	(fp_line
		(start -2.25 2.35)
		(end -1.75 2.35)
		(stroke
			(width 0.2032)
			(type solid)
		)
		(layer "F.Fab")
		(uuid "da28e498-06d6-43e0-86fc-08e199a898b5")
	)
	(fp_line
		(start -1.75 -3.4)
		(end 8.75 -3.4)
		(stroke
			(width 0.2032)
			(type solid)
		)
		(layer "F.Fab")
		(uuid "90c66d00-d06b-489c-a48d-b2afa1bc6a3e")
	)
	(fp_line
		(start -1.75 1.35)
		(end -2.25 1.35)
		(stroke
			(width 0.2032)
			(type solid)
		)
		(layer "F.Fab")
		(uuid "75151c5d-7583-44ef-a930-cd691e3f0934")
	)
	(fp_line
		(start -1.75 2.8)
		(end -1.75 -3.4)
		(stroke
			(width 0.2032)
			(type solid)
		)
		(layer "F.Fab")
		(uuid "ae1a6f59-b3af-48c8-ae5a-5213059109f9")
	)
	(fp_line
		(start -1.75 3.6)
		(end -1.75 2.8)
		(stroke
			(width 0.2032)
			(type solid)
		)
		(layer "F.Fab")
		(uuid "93d73254-1a53-4665-8a09-aa85597e61f6")
	)
	(fp_line
		(start 8.75 -3.4)
		(end 8.75 2.8)
		(stroke
			(width 0.2032)
			(type solid)
		)
		(layer "F.Fab")
		(uuid "9380eca4-1282-4eba-84bb-cbe29815d778")
	)
	(fp_line
		(start 8.75 -3.15)
		(end 9.25 -3.15)
		(stroke
			(width 0.2032)
			(type solid)
		)
		(layer "F.Fab")
		(uuid "a964dce0-aacc-46e3-823f-de09cc1eb070")
	)
	(fp_line
		(start 8.75 2.8)
		(end -1.75 2.8)
		(stroke
			(width 0.2032)
			(type solid)
		)
		(layer "F.Fab")
		(uuid "f8f24b93-affc-400e-84eb-11cba50d64b4")
	)
	(fp_line
		(start 8.75 2.8)
		(end 8.75 3.6)
		(stroke
			(width 0.2032)
			(type solid)
		)
		(layer "F.Fab")
		(uuid "17d8221a-f3c1-4575-9096-755ea739392c")
	)
	(fp_line
		(start 8.75 3.6)
		(end -1.75 3.6)
		(stroke
			(width 0.2032)
			(type solid)
		)
		(layer "F.Fab")
		(uuid "3d8a6279-74b2-492d-af89-cae00f201ad8")
	)
	(fp_line
		(start 9.25 -3.15)
		(end 9.25 -2.15)
		(stroke
			(width 0.2032)
			(type solid)
		)
		(layer "F.Fab")
		(uuid "b7c63b68-145c-4b00-be6b-baef3f74daf5")
	)
	(fp_line
		(start 9.25 -2.15)
		(end 8.75 -2.15)
		(stroke
			(width 0.2032)
			(type solid)
		)
		(layer "F.Fab")
		(uuid "47c5f3cf-a8b7-458d-b149-4f6a04ef2eb9")
	)
	(pad "1" thru_hole circle
		(at 0 0)
		(size 2.413 2.413)
		(drill 1.2)
		(layers "*.Cu" "*.Mask")
		(remove_unused_layers no)
		(solder_mask_margin 0.0508)
		(thermal_bridge_angle 0)
		(uuid "346022c6-7e31-49b6-92c4-899daf467523")
	)
	(pad "2" thru_hole circle
		(at 3.5 0)
		(size 2.413 2.413)
		(drill 1.2)
		(layers "*.Cu" "*.Mask")
		(remove_unused_layers no)
		(solder_mask_margin 0.0508)
		(thermal_bridge_angle 0)
		(uuid "069431d5-8797-4b48-a108-b63b72f64002")
	)
	(pad "3" thru_hole circle
		(at 7 0)
		(size 2.413 2.413)
		(drill 1.2)
		(layers "*.Cu" "*.Mask")
		(remove_unused_layers no)
		(solder_mask_margin 0.0508)
		(thermal_bridge_angle 0)
		(uuid "742e0fab-def9-43fd-a44e-bdb352ffc665")
	)
)